MATLAB/.Xil/Vivado-14782-badger/hw_ila_data_1/zip_work/waveform.vcd
$date
        2022-Feb-11 21:34:19
$end
$version
        Vivado v2019.1 (64-bit)
$end
$timescale
        1ps
$end
$scope module dut $end
$var reg 1 " i_system_wrapper/system_i/acq_data_fifo_m_axis_tvalid $end
$var reg 16 # i_system_wrapper/system_i/acq_l1_data_slice_Dout [15:0] $end
$var reg 16 3 i_system_wrapper/system_i/acq_l5_data_slice_Dout [15:0] $end
$var reg 32 C i_system_wrapper/system_i/trk_data_fifo_m_axis_tdata [31:0] $end
$var reg 1 c i_system_wrapper/system_i/trk_data_fifo_m_axis_tvalid $end
$var reg 1 d _TRIGGER $end
$var reg 1 e _WINDOW $end
$var reg 1 f _GAP $end
$upscope $end
$enddefinitions $end
#0
$dumpvars
0"
b11111111 #
b1111111111111111 3
b11111111 C
0c
0d
1e
0f
$end
#1
1c
#2
0c
#5
1c
#6
0c
#10
b111111110000000011111111 C
1c
#11
0c
#14
b11111111000000000000000011111111 C
1c
#15
0c
#19
b11111111 C
1c
#20
0c
#23
1c
#24
0c
#28
b11111111000000000000000011111111 C
1c
#29
0c
#33
b11111111111111110000000011111111 C
1c
#34
0c
#37
b11111111 C
1c
#38
0c
#42
b111111110000000011111111 C
1c
#43
0c
#46
b11111111111111110000000011111111 C
1c
#47
0c
#51
b11111111000000000000000011111111 C
1c
#52
0c
#55
b111111110000000011111111 C
1c
#56
0c
#60
b11111111000000000000000011111111 C
1c
#61
0c
#65
1c
#66
0c
#69
b11111111111111110000000011111111 C
1c
#70
0c
#74
b11111111 C
1c
#75
0c
#78
1c
#79
0c
#83
1"
b1111111111111111 #
1c
#84
0"
0c
#87
b0 C
1c
#88
0c
#92
b11111111111111111111111100000000 C
1c
#93
0c
#97
b11111111000000001111111100000000 C
1c
#98
0c
#101
b11111111111111111111111100000000 C
1c
#102
0c
#106
1c
#107
0c
#110
1c
#111
0c
#115
1c
#116
0c
#120
b111111111111111100000000 C
1c
#121
0c
#124
b11111111000000001111111100000000 C
1c
#125
0c
#129
1c
#130
0c
#133
1c
#134
0c
#138
b111111111111111100000000 C
1c
#139
0c
#142
b11111111000000001111111100000000 C
1c
#143
0c
#147
b111111111111111100000000 C
1c
#148
0c
#152
1c
#153
0c
#156
b11111111000000001111111100000000 C
1c
#157
0c
#161
b1111111100000000 C
1c
#162
0c
#165
1c
#166
0c
#170
b11111111000000001111111100000000 C
1c
#171
0c
#174
1"
b1111111100000000 #
b1111111100000000 C
1c
#175
0"
0c
#179
b11111111111111111111111100000000 C
1c
#180
0c
#184
1c
#185
0c
#188
b1111111100000000 C
1c
#189
0c
#193
b111111111111111100000000 C
1c
#194
0c
#197
b1111111100000000 C
1c
#198
0c
#202
b11111111000000001111111100000000 C
1c
#203
0c
#207
1c
#208
0c
#211
b11111111111111111111111100000000 C
1c
#212
0c
#216
b1111111100000000 C
1c
#217
0c
#220
b11111111000000001111111100000000 C
1c
#221
0c
#225
b1111111100000000 C
1c
#226
0c
#229
1c
#230
0c
#234
b11111111111111111111111100000000 C
1c
#235
0c
#239
1c
#240
0c
#243
b111111111111111100000000 C
1c
#244
0c
#248
1c
#249
0c
#252
b11111111000000001111111100000000 C
1c
#253
0c
#257
b1111111100000000 C
1c
#258
0c
#261
b11111111000000001111111100000000 C
1c
#262
0c
#266
1"
b1111111111111111 #
b1111111100000000 C
1c
#267
0"
0c
#271
b11111111111111111111111100000000 C
1c
#272
0c
#275
b1111111100000000 C
1c
#276
0c
#280
b111111111111111100000000 C
1c
#281
0c
#284
1c
#285
0c
#289
b1111111100000000 C
1c
#290
0c
#293
b11111111000000001111111100000000 C
1c
#294
0c
#298
1c
#299
0c
#303
1c
#304
0c
#307
1c
#308
0c
#312
1c
#313
0c
#316
b1111111100000000 C
1c
#317
0c
#321
b11111111111111111111111100000000 C
1c
#322
0c
#326
b1111111100000000 C
1c
#327
0c
#330
1c
#331
0c
#335
b11111111000000001111111100000000 C
1c
#336
0c
#339
b11111111111111111111111100000000 C
1c
#340
0c
#344
1c
#345
0c
#348
b11111111000000001111111100000000 C
1c
#349
0c
#353
1c
#354
0c
#358
1"
b11111111 #
1c
#359
0"
0c
#362
b11111111111111111111111100000000 C
1c
#363
0c
#367
b1111111100000000 C
1c
#368
0c
#371
b11111111000000001111111100000000 C
1c
#372
0c
#376
1c
#377
0c
#380
1c
#381
0c
#385
b111111111111111100000000 C
1c
#386
0c
#390
b11111111000000001111111100000000 C
1c
#391
0c
#394
b1111111100000000 C
1c
#395
0c
#399
1c
#400
0c
#403
b11111111000000001111111100000000 C
1c
#404
0c
#408
b11111111111111111111111100000000 C
1c
#409
0c
#413
b1111111100000000 C
1c
#414
0c
#417
b111111111111111100000000 C
1c
#418
0c
#422
b11111111000000001111111100000000 C
1c
#423
0c
#426
b1111111100000000 C
1c
#427
0c
#431
b111111111111111100000000 C
1c
#432
0c
#435
b11111111000000001111111100000000 C
1c
#436
0c
#440
b11111111111111111111111100000000 C
1c
#441
0c
#445
b1111111100000000 C
1c
#446
0c
#449
1"
b1111111111111111 #
1c
#450
0"
0c
#454
b11111111 C
1c
#455
0c
#458
b11111111000000000000000011111111 C
1c
#459
0c
#463
1c
#464
0c
#467
1c
#468
0c
#472
b11111111111111110000000011111111 C
1c
#473
0c
#477
1c
#478
0c
#481
b11111111000000000000000011111111 C
1c
#482
0c
#486
b11111111 C
1c
#487
0c
#490
1c
#491
0c
#495
b11111111000000000000000011111111 C
1c
#496
0c
#499
b111111110000000011111111 C
1c
#500
0c
#504
b11111111 C
1c
#505
0c
#509
1c
#510
0c
#512
1d
#513
b11111111000000000000000011111111 C
1c
#514
0c
#518
b11111111111111110000000011111111 C
1c
#519
0c
#522
b111111110000000011111111 C
1c
#523
0c
#527
b11111111 C
1c
#528
0c
#532
1c
#533
0c
#536
1c
#537
0c
#541
1"
b1111111100000000 #
b11111111111111110000000011111111 C
1c
#542
0"
0c
#545
1c
#546
0c
#550
b11111111 C
1c
#551
0c
#554
1c
#555
0c
#559
b11111111000000000000000011111111 C
1c
#560
0c
#564
b11111111111111110000000011111111 C
1c
#565
0c
#568
b11111111 C
1c
#569
0c
#573
b11111111000000000000000011111111 C
1c
#574
0c
#577
1c
#578
0c
#582
b11111111111111110000000011111111 C
1c
#583
0c
#586
1c
#587
0c
#591
b11111111 C
1c
#592
0c
#596
1c
#597
0c
#600
b11111111000000000000000011111111 C
1c
#601
0c
#605
b11111111111111110000000011111111 C
1c
#606
0c
#609
b11111111000000000000000011111111 C
1c
#610
0c
#614
b11111111111111110000000011111111 C
1c
#615
0c
#619
b111111110000000011111111 C
1c
#620
0c
#623
b11111111000000000000000011111111 C
1c
#624
0c
#628
b11111111 C
1c
#629
0c
#632
1"
b1111111111111111 #
1c
#633
0"
0c
#637
b11111111111111110000000011111111 C
1c
#638
0c
#641
b11111111111111111111111100000000 C
1c
#642
0c
#646
b1111111100000000 C
1c
#647
0c
#651
1c
#652
0c
#655
1c
#656
0c
#660
b11111111000000001111111100000000 C
1c
#661
0c
#664
b111111111111111100000000 C
1c
#665
0c
#669
b11111111000000001111111100000000 C
1c
#670
0c
#673
1c
#674
0c
#678
1c
#679
0c
#683
b1111111100000000 C
1c
#684
0c
#687
1c
#688
0c
#692
b111111111111111100000000 C
1c
#693
0c
#696
b11111111000000001111111100000000 C
1c
#697
0c
#701
b11111111111111111111111100000000 C
1c
#702
0c
#705
b11111111000000001111111100000000 C
1c
#706
0c
#710
1c
#711
0c
#715
b111111111111111100000000 C
1c
#716
0c
#719
1c
#720
0c
#724
1"
b1111111100000000 #
1c
#725
0"
0c
#728
b1111111100000000 C
1c
#729
0c
#733
1c
#734
0c
#738
1c
#739
0c
#742
1c
#743
0c
#747
b11111111000000001111111100000000 C
1c
#748
0c
#751
1c
#752
0c
#756
b11111111111111111111111100000000 C
1c
#757
0c
#760
b11111111000000001111111100000000 C
1c
#761
0c
#765
b1111111100000000 C
1c
#766
0c
#770
1c
#771
0c
#774
b11111111111111111111111100000000 C
1c
#775
0c
#779
b111111111111111100000000 C
1c
#780
0c
#783
b1111111100000000 C
1c
#784
0c
#788
b11111111000000001111111100000000 C
1c
#789
0c
#792
b11111111111111111111111100000000 C
1c
#793
0c
#797
b111111111111111100000000 C
1c
#798
0c
#802
b1111111100000000 C
1c
#803
0c
#806
1c
#807
0c
#811
1c
#812
0c
#815
1"
b1111111111111111 #
b111111111111111100000000 C
1c
#816
0"
0c
#820
b1111111111111111 C
1c
#821
0c
#824
b11111111000000000000000011111111 C
1c
#825
0c
#829
1c
#830
0c
#834
b11111111 C
1c
#835
0c
#838
b11111111000000000000000011111111 C
1c
#839
0c
#843
b11111111 C
1c
#844
0c
#847
1c
#848
0c
#852
b11111111000000000000000011111111 C
1c
#853
0c
#857
1c
#858
0c
#861
b11111111111111110000000011111111 C
1c
#862
0c
#866
b11111111000000000000000011111111 C
1c
#867
0c
#870
b11111111 C
1c
#871
0c
#875
b11111111000000000000000011111111 C
1c
#876
0c
#879
b111111110000000011111111 C
1c
#880
0c
#884
b11111111111111110000000011111111 C
1c
#885
0c
#889
b11111111 C
1c
#890
0c
#893
b11111111000000000000000011111111 C
1c
#894
0c
#898
1c
#899
0c
#902
b11111111 C
1c
#903
0c
#907
1"
b11111111 #
b11111111111111110000000011111111 C
1c
#908
0"
0c
#911
1c
#912
0c
#916
b11111111 C
1c
#917
0c
#921
1c
#922
0c
#925
b11111111000000000000000011111111 C
1c
#926
0c
#930
b11111111 C
1c
#931
0c
#934
b11111111111111110000000011111111 C
1c
#935
0c
#939
1c
#940
0c
#944
b11111111 C
1c
#945
0c
#948
b111111110000000011111111 C
1c
#949
0c
#953
b11111111 C
1c
#954
0c
#957
b11111111111111110000000011111111 C
1c
#958
0c
#962
b11111111000000000000000011111111 C
1c
#963
0c
#966
b11111111111111110000000011111111 C
1c
#967
0c
#971
b111111110000000011111111 C
1c
#972
0c
#976
b11111111 C
1c
#977
0c
#980
b111111110000000011111111 C
1c
#981
0c
#985
b11111111 C
1c
#986
0c
#989
1c
#990
0c
#994
b11111111000000000000000011111111 C
1c
#995
0c
#998
1"
b1111111111111111 #
1c
#999
0"
0c
#1003
b111111110000000011111111 C
1c
#1004
0c
#1008
b11111111 C
1c
#1009
0c
#1012
b11111111000000000000000011111111 C
1c
#1013
0c
#1017
b11111111111111110000000011111111 C
1c
#1018
0c
#1021
1c
#1022
0c
