MATLAB/.Xil/Vivado-31081-badger/hw_ila_data_1/zip_work/waveform.vcd
$date
        2022-Feb-12 16:49:07
$end
$version
        Vivado v2019.1 (64-bit)
$end
$timescale
        1ps
$end
$scope module dut $end
$var reg 1 " i_system_wrapper/system_i/acq_data_fifo_m_axis_tvalid $end
$var reg 16 # i_system_wrapper/system_i/acq_l1_data_slice_Dout [15:0] $end
$var reg 16 3 i_system_wrapper/system_i/acq_l5_data_slice_Dout [15:0] $end
$var reg 32 C i_system_wrapper/system_i/trk_data_fifo_m_axis_tdata [31:0] $end
$var reg 1 c i_system_wrapper/system_i/trk_data_fifo_m_axis_tvalid $end
$var reg 1 d _TRIGGER $end
$var reg 1 e _WINDOW $end
$var reg 1 f _GAP $end
$upscope $end
$enddefinitions $end
#0
$dumpvars
0"
b1111100111111000 #
b1111111111111111 3
b100000110100001111 C
1c
0d
1e
0f
$end
#1
0c
#5
b10111111110000101100010100 C
1c
#6
0c
#9
b10000111000010001 C
1c
#10
0c
#14
b101111111110000111100010001 C
1c
#15
0c
#18
b11111110111111100000101100010001 C
1c
#19
0c
#23
b111000010100 C
1c
#24
0c
#28
b11111111111111100000110000010010 C
1c
#29
0c
#32
b1000000010000100100010010 C
1c
#33
0c
#37
1"
b1111100011110110 #
b100000110000010000 C
1c
#38
0"
0c
#41
b11111111000000000000110000010111 C
1c
#42
0c
#46
b111111100000111000010100 C
1c
#47
0c
#50
b10111111110000111100010101 C
1c
#51
0c
#55
b10111111110000110100001101 C
1c
#56
0c
#60
b10000001000000110000010011 C
1c
#61
0c
#64
b111111010000110100010000 C
1c
#65
0c
#69
b11111111000000010000101100010110 C
1c
#70
0c
#73
b11111111111111110000101100010001 C
1c
#74
0c
#78
b10000000000000111100010110 C
1c
#79
0c
#82
b1000000101111110111111001 C
1c
#83
0c
#87
b11111110000000111111000111101100 C
1c
#88
0c
#92
b10111111011111000111101101 C
1c
#93
0c
#96
b1111001111101010 C
1c
#97
0c
#101
b11111111000000101111001011101001 C
1c
#102
0c
#105
b11111101111111101111001011101100 C
1c
#106
0c
#110
b1110110111101011 C
1c
#111
0c
#114
b11111110111111011111001111101101 C
1c
#115
0c
#119
b1000000011111010111101010 C
1c
#120
0c
#124
b11111101000000001111000111101110 C
1c
#125
0c
#128
1"
b111111111111010011101011 C
1c
#129
0"
0c
#133
b1000000011111001111101101 C
1c
#134
0c
#137
b1111001011101100 C
1c
#138
0c
#142
b10000000001111010111110000 C
1c
#143
0c
#146
b1111111101111001111101001 C
1c
#147
0c
#151
b11111111000000011111001111101101 C
1c
#152
0c
#156
b11111111111111101111010011101010 C
1c
#157
0c
#160
b1000000011111000111101101 C
1c
#161
0c
#165
b10000000001111000111101100 C
1c
#166
0c
#169
b11111110000000101111001011101100 C
1c
#170
0c
#174
b11111111000000011111000111101110 C
1c
#175
0c
#179
b11111111000000101111000111101110 C
1c
#180
0c
#183
b1111111111111001111101001 C
1c
#184
0c
#188
b10000000101111010011101111 C
1c
#189
0c
#192
b1000000001111010011101000 C
1c
#193
0c
#197
b11111000111101110 C
1c
#198
0c
#201
b11111101000000011110111011101111 C
1c
#202
0c
#206
b11111110111111101111010111101100 C
1c
#207
0c
#211
b111111111111010111101011 C
1c
#212
0c
#215
b111111011111010011101100 C
1c
#216
0c
#220
1"
b1111101011110111 #
b1111111100000000 3
b101111001111101010 C
1c
#221
0"
0c
#224
b11111111111111111111000111110001 C
1c
#225
0c
#229
b1000000001111011111101011 C
1c
#230
0c
#233
b11111100000000011111011011101101 C
1c
#234
0c
#238
b11111111101111001011101110 C
1c
#239
0c
#243
b11111101111111101111001111101111 C
1c
#244
0c
#247
b11111110111111111111001111101011 C
1c
#248
0c
#252
b10111111101111001011101111 C
1c
#253
0c
#256
b1001111010011101010 C
1c
#257
0c
#261
b1000001001111001011101110 C
1c
#262
0c
#265
b11111111000000011111010111101100 C
1c
#266
0c
#270
b1111111101111010011101110 C
1c
#271
0c
#275
b111111111111010111101011 C
1c
#276
0c
#279
b11111010011101010 C
1c
#280
0c
#284
b11111110000000011111010111101101 C
1c
#285
0c
#288
b11111111000000001111001011101101 C
1c
#289
0c
#293
b111111101111010111101011 C
1c
#294
0c
#298
b11111111000000011111010011101101 C
1c
#299
0c
#302
b101111100111101010 C
1c
#303
0c
#307
b11111110000000011111010011101100 C
1c
#308
0c
#311
1"
b10100000111 #
b1111111111111000011101100 C
1c
#312
0"
0c
#316
b1111010111101110 C
1c
#317
0c
#320
b1000000101111011011101010 C
1c
#321
0c
#325
b11111111000000011111010011110000 C
1c
#326
0c
#330
b11111110000000101111010011100111 C
1c
#331
0c
#334
b111111011111001011101101 C
1c
#335
0c
#339
b1111010111101010 C
1c
#340
0c
#343
b11111101000000001111010111101110 C
1c
#344
0c
#348
b11111100111111011111010011101101 C
1c
#349
0c
#352
b11111110000000001111010111101011 C
1c
#353
0c
#357
b111111111111010111101010 C
1c
#358
0c
#362
b1000000001111010111101111 C
1c
#363
0c
#366
b10000000001111000111101000 C
1c
#367
0c
#371
b1111011011101101 C
1c
#372
0c
#375
b111111101111010111101001 C
1c
#376
0c
#380
b1111111111111001011110001 C
1c
#381
0c
#385
b11111111000001101111001111101100 C
1c
#386
0c
#389
b11111111111111101111001111101101 C
1c
#390
0c
#394
b1111111011111010111101010 C
1c
#395
0c
#398
b11111111111111001111101101 C
1c
#399
0c
#403
1"
b10100001000 #
b11111111 3
b10111111011111010011101011 C
1c
#404
0"
0c
#407
b1000000011111001111101110 C
1c
#408
0c
#412
b1111011111101101 C
1c
#413
0c
#417
b11111111111111011111010111110000 C
1c
#418
0c
#421
b11111110000000101111001011101101 C
1c
#422
0c
#426
b1111111111111011011110000 C
1c
#427
0c
#430
b1000000001111001011101110 C
1c
#431
0c
#435
b11111110111111111111001011101110 C
1c
#436
0c
#439
b101111000111101010 C
1c
#440
0c
#444
b11111110111111111111001011101100 C
1c
#445
0c
#449
b11111110000000111111010111101011 C
1c
#450
0c
#453
b11111011000000011111010111101110 C
1c
#454
0c
#458
b11111110000000101111010111100111 C
1c
#459
0c
#462
b1111011111101101 C
1c
#463
0c
#467
b11111110000000101111001111101101 C
1c
#468
0c
#471
b11111110111111111111000011101101 C
1c
#472
0c
#476
b11111111011111010011101110 C
1c
#477
0c
#481
b11111100000000001111010111110000 C
1c
#482
0c
#485
b11111111111111011111100011101011 C
1c
#486
0c
#490
b11111111111111111111001011101101 C
1c
#491
0c
#494
1"
b1111101011110111 #
b1111111111111111 3
b11111101000000101111011011101100 C
1c
#495
0"
0c
#499
b1000000101111010111101100 C
1c
#500
0c
#504
b11111111111111101111010111101001 C
1c
#505
0c
#508
b11111110111111111111001111101011 C
1c
#509
0c
#512
1d
#513
b11111101000000101111001011101001 C
1c
#514
0c
#517
b11111100000000001111001111101110 C
1c
#518
0c
#522
b1111101011100111 C
1c
#523
0c
#526
b11111101111111111111010011101011 C
1c
#527
0c
#531
b11111111111111011111010011110001 C
1c
#532
0c
#536
b1111111111111010111101101 C
1c
#537
0c
#540
b11111011000000011111011111101011 C
1c
#541
0c
#545
b11111011000000001111000111101111 C
1c
#546
0c
#549
b11111011111111011111001111101011 C
1c
#550
0c
#554
b11111101111111101111001111101010 C
1c
#555
0c
#558
b11111111111111101111100011101010 C
1c
#559
0c
#563
b10000000101111100111110000 C
1c
#564
0c
#568
b11111111111111101111011011101011 C
1c
#569
0c
#572
b11111110111111011111011011101101 C
1c
#573
0c
#577
b11111101000000101111010111101100 C
1c
#578
0c
#581
b11111111111111101111010111110010 C
1c
#582
0c
#586
1"
b1111100111110101 #
b1111111100000000 3
b111111001111011111101010 C
1c
#587
0"
0c
#591
b11111110111111111111001111101000 C
1c
#592
0c
#595
b11111111111111111111011111101100 C
1c
#596
0c
#600
b1000000001111011011101011 C
1c
#601
0c
#604
b10111111001111010111101101 C
1c
#605
0c
#609
b11111101111111111111010111101101 C
1c
#610
0c
#613
b11111100000000111111010111100110 C
1c
#614
0c
#618
b111111101111010011101100 C
1c
#619
0c
#623
b11111101000000001111010111101101 C
1c
#624
0c
#627
b11111110000000001111011011101010 C
1c
#628
0c
#632
b100111111010000011100000010 C
1c
#633
0c
#636
b11111110111111110000011000011010 C
1c
#637
0c
#641
b100000010100 C
1c
#642
0c
#645
b11111111111111100000110000010101 C
1c
#646
0c
#650
b11111110111111110000110000010010 C
1c
#651
0c
#655
b11111111111111100000011000010001 C
1c
#656
0c
#659
b10000000010000101000010011 C
1c
#660
0c
#664
b11111110111111110000100000010101 C
1c
#665
0c
#668
b11111110111111110000100000010010 C
1c
#669
0c
#673
b11000010010 C
1c
#674
0c
#677
1"
b1111101011110110 #
b11111110111111100000100100010101 C
1c
#678
0"
0c
#682
b11111101111111110000100100010111 C
1c
#683
0c
#687
b11111110111111000000100100010011 C
1c
#688
0c
#691
b10000100100010101 C
1c
#692
0c
#696
b10000110000010100 C
1c
#697
0c
#700
b1000000010000100000010101 C
1c
#701
0c
#705
b11111111000000010000101100010110 C
1c
#706
0c
#710
b11111100111111000000100100010111 C
1c
#711
0c
#714
b11111111000000010000101100010001 C
1c
#715
0c
#719
b10000110000010011 C
1c
#720
0c
#723
b11111110111111010000101000010011 C
1c
#724
0c
#728
b11111111111111100000101100010010 C
1c
#729
0c
#732
b11111111000000010000101000010101 C
1c
#733
0c
#737
b11111101111111000000101100010110 C
1c
#738
0c
#742
b11111111000000000000100100010100 C
1c
#743
0c
#746
b1000000010000100100010001 C
1c
#747
0c
#751
b11111111000000100000101100010010 C
1c
#752
0c
#755
b10000000000000100000010110 C
1c
#756
0c
#760
b11000000000000110000010011 C
1c
#761
0c
#764
b11111111000000000000100100010111 C
1c
#765
0c
#769
1"
b1111100111110110 #
b1111111111111111 3
b111110100000100100010010 C
1c
#770
0"
0c
#774
b10000101000010100 C
1c
#775
0c
#778
b11111110111111000000110000010000 C
1c
#779
0c
#783
b111111110000101000010100 C
1c
#784
0c
#787
b11000001000000011100010110 C
1c
#788
0c
#792
b11111111010000011100010110 C
1c
#793
0c
#796
b1000000010000101100010100 C
1c
#797
0c
#801
b10000000110000100100010110 C
1c
#802
0c
#806
b1111111000000011000010001 C
1c
#807
0c
#810
b11111111000000000000011100010011 C
1c
#811
0c
#815
b11111101000000010000011100010001 C
1c
#816
0c
#819
b111111100000101000010111 C
1c
#820
0c
#824
b110000011100010110 C
1c
#825
0c
#829
b11111111000000000000100100010101 C
1c
#830
0c
#833
b1000000010000100000010100 C
1c
#834
0c
#838
b1000000010000011100010001 C
1c
#839
0c
#842
b10111111100000101000010011 C
1c
#843
0c
#847
b10000100000010110 C
1c
#848
0c
#851
b111111100000101100010011 C
1c
#852
0c
#856
b11111111111111100000100100011000 C
1c
#857
0c
#861
1"
b1111101011110101 #
b11111110000001000000101000010001 C
1c
#862
0"
0c
#865
b1000000000000100100010011 C
1c
#866
0c
#870
b11000000010000101000010011 C
1c
#871
0c
#874
b111111110000011100010100 C
1c
#875
0c
#879
b111111110000100100010101 C
1c
#880
0c
#883
b111111110000100100010110 C
1c
#884
0c
#888
b1000000000000101100001101 C
1c
#889
0c
#893
b11111110000000000000011100010100 C
1c
#894
0c
#897
b111111110000100100010100 C
1c
#898
0c
#902
b1000000000000100100010100 C
1c
#903
0c
#906
b10000000000000100000010110 C
1c
#907
0c
#911
b111111110000011000010111 C
1c
#912
0c
#916
b1000000000000011100010100 C
1c
#917
0c
#920
b11111111111111110000100100010100 C
1c
#921
0c
#925
b11111101000000000000101100010011 C
1c
#926
0c
#929
b11111111111111100000010100011010 C
1c
#930
0c
#934
b1010000100100010111 C
1c
#935
0c
#938
b1111111110000100000010110 C
1c
#939
0c
#943
b100100010100 C
1c
#944
0c
#948
b110000100000010100 C
1c
#949
0c
#952
1"
b1111101111110110 #
b11111111100000101000010100 C
1c
#953
0"
0c
#957
b11111111000000100000100100010011 C
1c
#958
0c
#961
b10000000010000110100010011 C
1c
#962
0c
#966
b100000010100 C
1c
#967
0c
#970
b11111110000000100000100100010100 C
1c
#971
0c
#975
b11111110000000010000101000010010 C
1c
#976
0c
#980
b11111111000000000000101000010010 C
1c
#981
0c
#984
b10000000100000101000010111 C
1c
#985
0c
#989
b10000000110000101100010011 C
1c
#990
0c
#993
b11111110000000000000011100010100 C
1c
#994
0c
#998
b100000100100010001 C
1c
#999
0c
#1002
b1000001010000011100010110 C
1c
#1003
0c
#1007
b10000000000000100100010011 C
1c
#1008
0c
#1012
b11111111000000110000010110 C
1c
#1013
0c
#1016
b11111101000000000000101000010101 C
1c
#1017
0c
#1021
b11111111000000010000100100010100 C
1c
#1022
0c
