MATLAB/.Xil/Vivado-8275-badger/hw_ila_data_2/zip_work/waveform.vcd
$date
        2022-Feb-13 03:35:03
$end
$version
        Vivado v2019.1 (64-bit)
$end
$timescale
        1ps
$end
$scope module dut $end
$var reg 3 " i_system_wrapper/system_i/acquisition_axis_0_st_fft_curr [2:0] $end
$var reg 1 % i_system_wrapper/system_i/acquisition_axis_0_event_frame_started $end
$var reg 3 & i_system_wrapper/system_i/acquisition_axis_0_st_fft_next [2:0] $end
$var reg 1 ) i_system_wrapper/system_i/acquisition_axis_0_st_xfft_curr $end
$var reg 1 * i_system_wrapper/system_i/acquisition_axis_0_st_xfft_next $end
$var reg 4 + i_system_wrapper/system_i/acquisition_axis_0_st_curr [3:0] $end
$var reg 17 / i_system_wrapper/system_i/acquisition_axis_0_xfft_cntr [16:0] $end
$var reg 1 @ i_system_wrapper/system_i/acquisition_axis_0_config_xfft_valid $end
$var reg 1 A i_system_wrapper/system_i/acquisition_axis_0_switch_position $end
$var reg 16 B i_system_wrapper/system_i/acquisition_axis_0_config_xfft_data [15:0] $end
$var reg 1 R i_system_wrapper/system_i/acquisition_axis_0_xfft_data_out_tvalid $end
$var reg 1 S i_system_wrapper/system_i/acquisition_axis_0_xfft_data_out_tlast $end
$var reg 1 T i_system_wrapper/system_i/acquisition_axis_0_xfft_tvalid1 $end
$var reg 32 U i_system_wrapper/system_i/acquisition_axis_0_second_peak_data [31:0] $end
$var reg 16 u i_system_wrapper/system_i/acquisition_axis_0_max_peak [15:0] $end
$var reg 16 '" i_system_wrapper/system_i/acquisition_axis_0_max_index [15:0] $end
$var reg 32 7" i_system_wrapper/system_i/acquisition_axis_0_second_peak [31:0] $end
$var reg 1 W" i_system_wrapper/system_i/acquisition_axis_0_max_index_done $end
$var reg 1 X" i_system_wrapper/system_i/acquisition_axis_0_second_peak_valid $end
$var reg 1 Y" i_system_wrapper/system_i/acquisition_axis_0_second_peak_last $end
$var reg 16 Z" i_system_wrapper/system_i/acquisition_axis_0_xfft_index [15:0] $end
$var reg 32 j" i_system_wrapper/system_i/acquisition_axis_0_xfft_data_out_tdata [31:0] $end
$var reg 1 ,# _TRIGGER $end
$var reg 1 -# _WINDOW $end
$var reg 1 .# _GAP $end
$upscope $end
$enddefinitions $end
#0
$dumpvars
b1 "
0%
b1 &
1)
1*
b1 +
b0 /
1@
1A
b100001100 B
0R
0S
0T
b11111111001011000001010011011100 U
b0 u
b0 '"
b0 7"
0W"
0X"
0Y"
b111111110000 Z"
b11111111001011000001010011011100 j"
0,#
1-#
0.#
$end
#998
b10 +
#1018
b1 /
#1019
b10 /
#1020
b11 /
#1021
b100 /
#1022
b101 /
#1023
b110 /
#1024
1%
b10 &
b111 /
0@
0A
b1100 B
1,#
#1025
b10 "
0%
b11 &
b1000 /
1@
#1026
b11 "
b1001 /
#1027
b1010 /
#1028
b1011 /
#1029
b1100 /
#1030
b1101 /
#1031
b1110 /
#1032
b1111 /
#1033
b10000 /
#1034
b10001 /
#1035
b10010 /
#1036
b10011 /
#1037
b10100 /
#1038
b10101 /
#1039
b10110 /
#1040
b10111 /
#1041
b11000 /
#1042
b11001 /
#1043
b11010 /
#1044
b11011 /
#1045
b11100 /
#1046
b11101 /
#1047
b11110 /
#1048
b11111 /
#1049
b100000 /
#1050
b100001 /
#1051
b100010 /
#1052
b100011 /
#1053
b100100 /
#1054
b100101 /
#1055
b100110 /
#1056
b100111 /
#1057
b101000 /
#1058
b101001 /
#1059
b101010 /
#1060
b101011 /
#1061
b101100 /
#1062
b101101 /
#1063
b101110 /
#1064
b101111 /
#1065
b110000 /
#1066
b110001 /
#1067
b110010 /
#1068
b110011 /
#1069
b110100 /
#1070
b110101 /
#1071
b110110 /
#1072
b110111 /
#1073
b111000 /
#1074
b111001 /
#1075
b111010 /
#1076
b111011 /
#1077
b111100 /
#1078
b111101 /
#1079
b111110 /
#1080
b111111 /
#1081
b1000000 /
#1082
b1000001 /
#1083
b1000010 /
#1084
b1000011 /
#1085
b1000100 /
#1086
b1000101 /
#1087
b1000110 /
#1088
b1000111 /
#1089
b1001000 /
#1090
b1001001 /
#1091
b1001010 /
#1092
b1001011 /
#1093
b1001100 /
#1094
b1001101 /
#1095
b1001110 /
#1096
b1001111 /
#1097
b1010000 /
#1098
b1010001 /
#1099
b1010010 /
#1100
b1010011 /
#1101
b1010100 /
#1102
b1010101 /
#1103
b1010110 /
#1104
b1010111 /
#1105
b1011000 /
#1106
b1011001 /
#1107
b1011010 /
#1108
b1011011 /
#1109
b1011100 /
#1110
b1011101 /
#1111
b1011110 /
#1112
b1011111 /
#1113
b1100000 /
#1114
b1100001 /
#1115
b1100010 /
#1116
b1100011 /
#1117
b1100100 /
#1118
b1100101 /
#1119
b1100110 /
#1120
b1100111 /
#1121
b1101000 /
#1122
b1101001 /
#1123
b1101010 /
#1124
b1101011 /
#1125
b1101100 /
#1126
b1101101 /
#1127
b1101110 /
#1128
b1101111 /
#1129
b1110000 /
#1130
b1110001 /
#1131
b1110010 /
#1132
b1110011 /
#1133
b1110100 /
#1134
b1110101 /
#1135
b1110110 /
#1136
b1110111 /
#1137
b1111000 /
#1138
b1111001 /
#1139
b1111010 /
#1140
b1111011 /
#1141
b1111100 /
#1142
b1111101 /
#1143
b1111110 /
#1144
b1111111 /
#1145
b10000000 /
#1146
b10000001 /
#1147
b10000010 /
#1148
b10000011 /
#1149
b10000100 /
#1150
b10000101 /
#1151
b10000110 /
#1152
b10000111 /
#1153
b10001000 /
#1154
b10001001 /
#1155
b10001010 /
#1156
b10001011 /
#1157
b10001100 /
#1158
b10001101 /
#1159
b10001110 /
#1160
b10001111 /
#1161
b10010000 /
#1162
b10010001 /
#1163
b10010010 /
#1164
b10010011 /
#1165
b10010100 /
#1166
b10010101 /
#1167
b10010110 /
#1168
b10010111 /
#1169
b10011000 /
#1170
b10011001 /
#1171
b10011010 /
#1172
b10011011 /
#1173
b10011100 /
#1174
b10011101 /
#1175
b10011110 /
#1176
b10011111 /
#1177
b10100000 /
#1178
b10100001 /
#1179
b10100010 /
#1180
b10100011 /
#1181
b10100100 /
#1182
b10100101 /
#1183
b10100110 /
#1184
b10100111 /
#1185
b10101000 /
#1186
b10101001 /
#1187
b10101010 /
#1188
b10101011 /
#1189
b10101100 /
#1190
b10101101 /
#1191
b10101110 /
#1192
b10101111 /
#1193
b10110000 /
#1194
b10110001 /
#1195
b10110010 /
#1196
b10110011 /
#1197
b10110100 /
#1198
b10110101 /
#1199
b10110110 /
#1200
b10110111 /
#1201
b10111000 /
#1202
b10111001 /
#1203
b10111010 /
#1204
b10111011 /
#1205
b10111100 /
#1206
b10111101 /
#1207
b10111110 /
#1208
b10111111 /
#1209
b11000000 /
#1210
b11000001 /
#1211
b11000010 /
#1212
b11000011 /
#1213
b11000100 /
#1214
b11000101 /
#1215
b11000110 /
#1216
b11000111 /
#1217
b11001000 /
#1218
b11001001 /
#1219
b11001010 /
#1220
b11001011 /
#1221
b11001100 /
#1222
b11001101 /
#1223
b11001110 /
#1224
b11001111 /
#1225
b11010000 /
#1226
b11010001 /
#1227
b11010010 /
#1228
b11010011 /
#1229
b11010100 /
#1230
b11010101 /
#1231
b11010110 /
#1232
b11010111 /
#1233
b11011000 /
#1234
b11011001 /
#1235
b11011010 /
#1236
b11011011 /
#1237
b11011100 /
#1238
b11011101 /
#1239
b11011110 /
#1240
b11011111 /
#1241
b11100000 /
#1242
b11100001 /
#1243
b11100010 /
#1244
b11100011 /
#1245
b11100100 /
#1246
b11100101 /
#1247
b11100110 /
#1248
b11100111 /
#1249
b11101000 /
#1250
b11101001 /
#1251
b11101010 /
#1252
b11101011 /
#1253
b11101100 /
#1254
b11101101 /
#1255
b11101110 /
#1256
b11101111 /
#1257
b11110000 /
#1258
b11110001 /
#1259
b11110010 /
#1260
b11110011 /
#1261
b11110100 /
#1262
b11110101 /
#1263
b11110110 /
#1264
b11110111 /
#1265
b11111000 /
#1266
b11111001 /
#1267
b11111010 /
#1268
b11111011 /
#1269
b11111100 /
#1270
b11111101 /
#1271
b11111110 /
#1272
b11111111 /
#1273
b100000000 /
#1274
b100000001 /
#1275
b100000010 /
#1276
b100000011 /
#1277
b100000100 /
#1278
b100000101 /
#1279
b100000110 /
#1280
b100000111 /
#1281
b100001000 /
#1282
b100001001 /
#1283
b100001010 /
#1284
b100001011 /
#1285
b100001100 /
#1286
b100001101 /
#1287
b100001110 /
#1288
b100001111 /
#1289
b100010000 /
#1290
b100010001 /
#1291
b100010010 /
#1292
b100010011 /
#1293
b100010100 /
#1294
b100010101 /
#1295
b100010110 /
#1296
b100010111 /
#1297
b100011000 /
#1298
b100011001 /
#1299
b100011010 /
#1300
b100011011 /
#1301
b100011100 /
#1302
b100011101 /
#1303
b100011110 /
#1304
b100011111 /
#1305
b100100000 /
#1306
b100100001 /
#1307
b100100010 /
#1308
b100100011 /
#1309
b100100100 /
#1310
b100100101 /
#1311
b100100110 /
#1312
b100100111 /
#1313
b100101000 /
#1314
b100101001 /
#1315
b100101010 /
#1316
b100101011 /
#1317
b100101100 /
#1318
b100101101 /
#1319
b100101110 /
#1320
b100101111 /
#1321
b100110000 /
#1322
b100110001 /
#1323
b100110010 /
#1324
b100110011 /
#1325
b100110100 /
#1326
b100110101 /
#1327
b100110110 /
#1328
b100110111 /
#1329
b100111000 /
#1330
b100111001 /
#1331
b100111010 /
#1332
b100111011 /
#1333
b100111100 /
#1334
b100111101 /
#1335
b100111110 /
#1336
b100111111 /
#1337
b101000000 /
#1338
b101000001 /
#1339
b101000010 /
#1340
b101000011 /
#1341
b101000100 /
#1342
b101000101 /
#1343
b101000110 /
#1344
b101000111 /
#1345
b101001000 /
#1346
b101001001 /
#1347
b101001010 /
#1348
b101001011 /
#1349
b101001100 /
#1350
b101001101 /
#1351
b101001110 /
#1352
b101001111 /
#1353
b101010000 /
#1354
b101010001 /
#1355
b101010010 /
#1356
b101010011 /
#1357
b101010100 /
#1358
b101010101 /
#1359
b101010110 /
#1360
b101010111 /
#1361
b101011000 /
#1362
b101011001 /
#1363
b101011010 /
#1364
b101011011 /
#1365
b101011100 /
#1366
b101011101 /
#1367
b101011110 /
#1368
b101011111 /
#1369
b101100000 /
#1370
b101100001 /
#1371
b101100010 /
#1372
b101100011 /
#1373
b101100100 /
#1374
b101100101 /
#1375
b101100110 /
#1376
b101100111 /
#1377
b101101000 /
#1378
b101101001 /
#1379
b101101010 /
#1380
b101101011 /
#1381
b101101100 /
#1382
b101101101 /
#1383
b101101110 /
#1384
b101101111 /
#1385
b101110000 /
#1386
b101110001 /
#1387
b101110010 /
#1388
b101110011 /
#1389
b101110100 /
#1390
b101110101 /
#1391
b101110110 /
#1392
b101110111 /
#1393
b101111000 /
#1394
b101111001 /
#1395
b101111010 /
#1396
b101111011 /
#1397
b101111100 /
#1398
b101111101 /
#1399
b101111110 /
#1400
b101111111 /
#1401
b110000000 /
#1402
b110000001 /
#1403
b110000010 /
#1404
b110000011 /
#1405
b110000100 /
#1406
b110000101 /
#1407
b110000110 /
#1408
b110000111 /
#1409
b110001000 /
#1410
b110001001 /
#1411
b110001010 /
#1412
b110001011 /
#1413
b110001100 /
#1414
b110001101 /
#1415
b110001110 /
#1416
b110001111 /
#1417
b110010000 /
#1418
b110010001 /
#1419
b110010010 /
#1420
b110010011 /
#1421
b110010100 /
#1422
b110010101 /
#1423
b110010110 /
#1424
b110010111 /
#1425
b110011000 /
#1426
b110011001 /
#1427
b110011010 /
#1428
b110011011 /
#1429
b110011100 /
#1430
b110011101 /
#1431
b110011110 /
#1432
b110011111 /
#1433
b110100000 /
#1434
b110100001 /
#1435
b110100010 /
#1436
b110100011 /
#1437
b110100100 /
#1438
b110100101 /
#1439
b110100110 /
#1440
b110100111 /
#1441
b110101000 /
#1442
b110101001 /
#1443
b110101010 /
#1444
b110101011 /
#1445
b110101100 /
#1446
b110101101 /
#1447
b110101110 /
#1448
b110101111 /
#1449
b110110000 /
#1450
b110110001 /
#1451
b110110010 /
#1452
b110110011 /
#1453
b110110100 /
#1454
b110110101 /
#1455
b110110110 /
#1456
b110110111 /
#1457
b110111000 /
#1458
b110111001 /
#1459
b110111010 /
#1460
b110111011 /
#1461
b110111100 /
#1462
b110111101 /
#1463
b110111110 /
#1464
b110111111 /
#1465
b111000000 /
#1466
b111000001 /
#1467
b111000010 /
#1468
b111000011 /
#1469
b111000100 /
#1470
b111000101 /
#1471
b111000110 /
#1472
b111000111 /
#1473
b111001000 /
#1474
b111001001 /
#1475
b111001010 /
#1476
b111001011 /
#1477
b111001100 /
#1478
b111001101 /
#1479
b111001110 /
#1480
b111001111 /
#1481
b111010000 /
#1482
b111010001 /
#1483
b111010010 /
#1484
b111010011 /
#1485
b111010100 /
#1486
b111010101 /
#1487
b111010110 /
#1488
b111010111 /
#1489
b111011000 /
#1490
b111011001 /
#1491
b111011010 /
#1492
b111011011 /
#1493
b111011100 /
#1494
b111011101 /
#1495
b111011110 /
#1496
b111011111 /
#1497
b111100000 /
#1498
b111100001 /
#1499
b111100010 /
#1500
b111100011 /
#1501
b111100100 /
#1502
b111100101 /
#1503
b111100110 /
#1504
b111100111 /
#1505
b111101000 /
#1506
b111101001 /
#1507
b111101010 /
#1508
b111101011 /
#1509
b111101100 /
#1510
b111101101 /
#1511
b111101110 /
#1512
b111101111 /
#1513
b111110000 /
#1514
b111110001 /
#1515
b111110010 /
#1516
b111110011 /
#1517
b111110100 /
#1518
b111110101 /
#1519
b111110110 /
#1520
b111110111 /
#1521
b111111000 /
#1522
b111111001 /
#1523
b111111010 /
#1524
b111111011 /
#1525
b111111100 /
#1526
b111111101 /
#1527
b111111110 /
#1528
b111111111 /
#1529
b1000000000 /
#1530
b1000000001 /
#1531
b1000000010 /
#1532
b1000000011 /
#1533
b1000000100 /
#1534
b1000000101 /
#1535
b1000000110 /
#1536
b1000000111 /
#1537
b1000001000 /
#1538
b1000001001 /
#1539
b1000001010 /
#1540
b1000001011 /
#1541
b1000001100 /
#1542
b1000001101 /
#1543
b1000001110 /
#1544
b1000001111 /
#1545
b1000010000 /
#1546
b1000010001 /
#1547
b1000010010 /
#1548
b1000010011 /
#1549
b1000010100 /
#1550
b1000010101 /
#1551
b1000010110 /
#1552
b1000010111 /
#1553
b1000011000 /
#1554
b1000011001 /
#1555
b1000011010 /
#1556
b1000011011 /
#1557
b1000011100 /
#1558
b1000011101 /
#1559
b1000011110 /
#1560
b1000011111 /
#1561
b1000100000 /
#1562
b1000100001 /
#1563
b1000100010 /
#1564
b1000100011 /
#1565
b1000100100 /
#1566
b1000100101 /
#1567
b1000100110 /
#1568
b1000100111 /
#1569
b1000101000 /
#1570
b1000101001 /
#1571
b1000101010 /
#1572
b1000101011 /
#1573
b1000101100 /
#1574
b1000101101 /
#1575
b1000101110 /
#1576
b1000101111 /
#1577
b1000110000 /
#1578
b1000110001 /
#1579
b1000110010 /
#1580
b1000110011 /
#1581
b1000110100 /
#1582
b1000110101 /
#1583
b1000110110 /
#1584
b1000110111 /
#1585
b1000111000 /
#1586
b1000111001 /
#1587
b1000111010 /
#1588
b1000111011 /
#1589
b1000111100 /
#1590
b1000111101 /
#1591
b1000111110 /
#1592
b1000111111 /
#1593
b1001000000 /
#1594
b1001000001 /
#1595
b1001000010 /
#1596
b1001000011 /
#1597
b1001000100 /
#1598
b1001000101 /
#1599
b1001000110 /
#1600
b1001000111 /
#1601
b1001001000 /
#1602
b1001001001 /
#1603
b1001001010 /
#1604
b1001001011 /
#1605
b1001001100 /
#1606
b1001001101 /
#1607
b1001001110 /
#1608
b1001001111 /
#1609
b1001010000 /
#1610
b1001010001 /
#1611
b1001010010 /
#1612
b1001010011 /
#1613
b1001010100 /
#1614
b1001010101 /
#1615
b1001010110 /
#1616
b1001010111 /
#1617
b1001011000 /
#1618
b1001011001 /
#1619
b1001011010 /
#1620
b1001011011 /
#1621
b1001011100 /
#1622
b1001011101 /
#1623
b1001011110 /
#1624
b1001011111 /
#1625
b1001100000 /
#1626
b1001100001 /
#1627
b1001100010 /
#1628
b1001100011 /
#1629
b1001100100 /
#1630
b1001100101 /
#1631
b1001100110 /
#1632
b1001100111 /
#1633
b1001101000 /
#1634
b1001101001 /
#1635
b1001101010 /
#1636
b1001101011 /
#1637
b1001101100 /
#1638
b1001101101 /
#1639
b1001101110 /
#1640
b1001101111 /
#1641
b1001110000 /
#1642
b1001110001 /
#1643
b1001110010 /
#1644
b1001110011 /
#1645
b1001110100 /
#1646
b1001110101 /
#1647
b1001110110 /
#1648
b1001110111 /
#1649
b1001111000 /
#1650
b1001111001 /
#1651
b1001111010 /
#1652
b1001111011 /
#1653
b1001111100 /
#1654
b1001111101 /
#1655
b1001111110 /
#1656
b1001111111 /
#1657
b1010000000 /
#1658
b1010000001 /
#1659
b1010000010 /
#1660
b1010000011 /
#1661
b1010000100 /
#1662
b1010000101 /
#1663
b1010000110 /
#1664
b1010000111 /
#1665
b1010001000 /
#1666
b1010001001 /
#1667
b1010001010 /
#1668
b1010001011 /
#1669
b1010001100 /
#1670
b1010001101 /
#1671
b1010001110 /
#1672
b1010001111 /
#1673
b1010010000 /
#1674
b1010010001 /
#1675
b1010010010 /
#1676
b1010010011 /
#1677
b1010010100 /
#1678
b1010010101 /
#1679
b1010010110 /
#1680
b1010010111 /
#1681
b1010011000 /
#1682
b1010011001 /
#1683
b1010011010 /
#1684
b1010011011 /
#1685
b1010011100 /
#1686
b1010011101 /
#1687
b1010011110 /
#1688
b1010011111 /
#1689
b1010100000 /
#1690
b1010100001 /
#1691
b1010100010 /
#1692
b1010100011 /
#1693
b1010100100 /
#1694
b1010100101 /
#1695
b1010100110 /
#1696
b1010100111 /
#1697
b1010101000 /
#1698
b1010101001 /
#1699
b1010101010 /
#1700
b1010101011 /
#1701
b1010101100 /
#1702
b1010101101 /
#1703
b1010101110 /
#1704
b1010101111 /
#1705
b1010110000 /
#1706
b1010110001 /
#1707
b1010110010 /
#1708
b1010110011 /
#1709
b1010110100 /
#1710
b1010110101 /
#1711
b1010110110 /
#1712
b1010110111 /
#1713
b1010111000 /
#1714
b1010111001 /
#1715
b1010111010 /
#1716
b1010111011 /
#1717
b1010111100 /
#1718
b1010111101 /
#1719
b1010111110 /
#1720
b1010111111 /
#1721
b1011000000 /
#1722
b1011000001 /
#1723
b1011000010 /
#1724
b1011000011 /
#1725
b1011000100 /
#1726
b1011000101 /
#1727
b1011000110 /
#1728
b1011000111 /
#1729
b1011001000 /
#1730
b1011001001 /
#1731
b1011001010 /
#1732
b1011001011 /
#1733
b1011001100 /
#1734
b1011001101 /
#1735
b1011001110 /
#1736
b1011001111 /
#1737
b1011010000 /
#1738
b1011010001 /
#1739
b1011010010 /
#1740
b1011010011 /
#1741
b1011010100 /
#1742
b1011010101 /
#1743
b1011010110 /
#1744
b1011010111 /
#1745
b1011011000 /
#1746
b1011011001 /
#1747
b1011011010 /
#1748
b1011011011 /
#1749
b1011011100 /
#1750
b1011011101 /
#1751
b1011011110 /
#1752
b1011011111 /
#1753
b1011100000 /
#1754
b1011100001 /
#1755
b1011100010 /
#1756
b1011100011 /
#1757
b1011100100 /
#1758
b1011100101 /
#1759
b1011100110 /
#1760
b1011100111 /
#1761
b1011101000 /
#1762
b1011101001 /
#1763
b1011101010 /
#1764
b1011101011 /
#1765
b1011101100 /
#1766
b1011101101 /
#1767
b1011101110 /
#1768
b1011101111 /
#1769
b1011110000 /
#1770
b1011110001 /
#1771
b1011110010 /
#1772
b1011110011 /
#1773
b1011110100 /
#1774
b1011110101 /
#1775
b1011110110 /
#1776
b1011110111 /
#1777
b1011111000 /
#1778
b1011111001 /
#1779
b1011111010 /
#1780
b1011111011 /
#1781
b1011111100 /
#1782
b1011111101 /
#1783
b1011111110 /
#1784
b1011111111 /
#1785
b1100000000 /
#1786
b1100000001 /
#1787
b1100000010 /
#1788
b1100000011 /
#1789
b1100000100 /
#1790
b1100000101 /
#1791
b1100000110 /
#1792
b1100000111 /
#1793
b1100001000 /
#1794
b1100001001 /
#1795
b1100001010 /
#1796
b1100001011 /
#1797
b1100001100 /
#1798
b1100001101 /
#1799
b1100001110 /
#1800
b1100001111 /
#1801
b1100010000 /
#1802
b1100010001 /
#1803
b1100010010 /
#1804
b1100010011 /
#1805
b1100010100 /
#1806
b1100010101 /
#1807
b1100010110 /
#1808
b1100010111 /
#1809
b1100011000 /
#1810
b1100011001 /
#1811
b1100011010 /
#1812
b1100011011 /
#1813
b1100011100 /
#1814
b1100011101 /
#1815
b1100011110 /
#1816
b1100011111 /
#1817
b1100100000 /
#1818
b1100100001 /
#1819
b1100100010 /
#1820
b1100100011 /
#1821
b1100100100 /
#1822
b1100100101 /
#1823
b1100100110 /
#1824
b1100100111 /
#1825
b1100101000 /
#1826
b1100101001 /
#1827
b1100101010 /
#1828
b1100101011 /
#1829
b1100101100 /
#1830
b1100101101 /
#1831
b1100101110 /
#1832
b1100101111 /
#1833
b1100110000 /
#1834
b1100110001 /
#1835
b1100110010 /
#1836
b1100110011 /
#1837
b1100110100 /
#1838
b1100110101 /
#1839
b1100110110 /
#1840
b1100110111 /
#1841
b1100111000 /
#1842
b1100111001 /
#1843
b1100111010 /
#1844
b1100111011 /
#1845
b1100111100 /
#1846
b1100111101 /
#1847
b1100111110 /
#1848
b1100111111 /
#1849
b1101000000 /
#1850
b1101000001 /
#1851
b1101000010 /
#1852
b1101000011 /
#1853
b1101000100 /
#1854
b1101000101 /
#1855
b1101000110 /
#1856
b1101000111 /
#1857
b1101001000 /
#1858
b1101001001 /
#1859
b1101001010 /
#1860
b1101001011 /
#1861
b1101001100 /
#1862
b1101001101 /
#1863
b1101001110 /
#1864
b1101001111 /
#1865
b1101010000 /
#1866
b1101010001 /
#1867
b1101010010 /
#1868
b1101010011 /
#1869
b1101010100 /
#1870
b1101010101 /
#1871
b1101010110 /
#1872
b1101010111 /
#1873
b1101011000 /
#1874
b1101011001 /
#1875
b1101011010 /
#1876
b1101011011 /
#1877
b1101011100 /
#1878
b1101011101 /
#1879
b1101011110 /
#1880
b1101011111 /
#1881
b1101100000 /
#1882
b1101100001 /
#1883
b1101100010 /
#1884
b1101100011 /
#1885
b1101100100 /
#1886
b1101100101 /
#1887
b1101100110 /
#1888
b1101100111 /
#1889
b1101101000 /
#1890
b1101101001 /
#1891
b1101101010 /
#1892
b1101101011 /
#1893
b1101101100 /
#1894
b1101101101 /
#1895
b1101101110 /
#1896
b1101101111 /
#1897
b1101110000 /
#1898
b1101110001 /
#1899
b1101110010 /
#1900
b1101110011 /
#1901
b1101110100 /
#1902
b1101110101 /
#1903
b1101110110 /
#1904
b1101110111 /
#1905
b1101111000 /
#1906
b1101111001 /
#1907
b1101111010 /
#1908
b1101111011 /
#1909
b1101111100 /
#1910
b1101111101 /
#1911
b1101111110 /
#1912
b1101111111 /
#1913
b1110000000 /
#1914
b1110000001 /
#1915
b1110000010 /
#1916
b1110000011 /
#1917
b1110000100 /
#1918
b1110000101 /
#1919
b1110000110 /
#1920
b1110000111 /
#1921
b1110001000 /
#1922
b1110001001 /
#1923
b1110001010 /
#1924
b1110001011 /
#1925
b1110001100 /
#1926
b1110001101 /
#1927
b1110001110 /
#1928
b1110001111 /
#1929
b1110010000 /
#1930
b1110010001 /
#1931
b1110010010 /
#1932
b1110010011 /
#1933
b1110010100 /
#1934
b1110010101 /
#1935
b1110010110 /
#1936
b1110010111 /
#1937
b1110011000 /
#1938
b1110011001 /
#1939
b1110011010 /
#1940
b1110011011 /
#1941
b1110011100 /
#1942
b1110011101 /
#1943
b1110011110 /
#1944
b1110011111 /
#1945
b1110100000 /
#1946
b1110100001 /
#1947
b1110100010 /
#1948
b1110100011 /
#1949
b1110100100 /
#1950
b1110100101 /
#1951
b1110100110 /
#1952
b1110100111 /
#1953
b1110101000 /
#1954
b1110101001 /
#1955
b1110101010 /
#1956
b1110101011 /
#1957
b1110101100 /
#1958
b1110101101 /
#1959
b1110101110 /
#1960
b1110101111 /
#1961
b1110110000 /
#1962
b1110110001 /
#1963
b1110110010 /
#1964
b1110110011 /
#1965
b1110110100 /
#1966
b1110110101 /
#1967
b1110110110 /
#1968
b1110110111 /
#1969
b1110111000 /
#1970
b1110111001 /
#1971
b1110111010 /
#1972
b1110111011 /
#1973
b1110111100 /
#1974
b1110111101 /
#1975
b1110111110 /
#1976
b1110111111 /
#1977
b1111000000 /
#1978
b1111000001 /
#1979
b1111000010 /
#1980
b1111000011 /
#1981
b1111000100 /
#1982
b1111000101 /
#1983
b1111000110 /
#1984
b1111000111 /
#1985
b1111001000 /
#1986
b1111001001 /
#1987
b1111001010 /
#1988
b1111001011 /
#1989
b1111001100 /
#1990
b1111001101 /
#1991
b1111001110 /
#1992
b1111001111 /
#1993
b1111010000 /
#1994
b1111010001 /
#1995
b1111010010 /
#1996
b1111010011 /
#1997
b1111010100 /
#1998
b1111010101 /
#1999
b1111010110 /
#2000
b1111010111 /
#2001
b1111011000 /
#2002
b1111011001 /
#2003
b1111011010 /
#2004
b1111011011 /
#2005
b1111011100 /
#2006
b1111011101 /
#2007
b1111011110 /
#2008
b1111011111 /
#2009
b1111100000 /
#2010
b1111100001 /
#2011
b1111100010 /
#2012
b1111100011 /
#2013
b1111100100 /
#2014
b1111100101 /
#2015
b1111100110 /
#2016
b1111100111 /
#2017
b1111101000 /
#2018
b1111101001 /
#2019
b1111101010 /
#2020
b1111101011 /
#2021
b1111101100 /
#2022
b1111101101 /
#2023
b1111101110 /
#2024
b1111101111 /
#2025
b1111110000 /
#2026
b1111110001 /
#2027
b1111110010 /
#2028
b1111110011 /
#2029
b1111110100 /
#2030
b1111110101 /
#2031
b1111110110 /
#2032
b1111110111 /
#2033
b1111111000 /
#2034
b1111111001 /
#2035
b1111111010 /
#2036
b1111111011 /
#2037
b1111111100 /
#2038
b1111111101 /
#2039
b1111111110 /
#2040
b1111111111 /
#2041
b10000000000 /
#2042
b10000000001 /
#2043
b10000000010 /
#2044
b10000000011 /
#2045
b10000000100 /
#2046
b10000000101 /
#2047
b10000000110 /
#2048
b10000000111 /
#2049
b10000001000 /
#2050
b10000001001 /
#2051
b10000001010 /
#2052
b10000001011 /
#2053
b10000001100 /
#2054
b10000001101 /
#2055
b10000001110 /
#2056
b10000001111 /
#2057
b10000010000 /
#2058
b10000010001 /
#2059
b10000010010 /
#2060
b10000010011 /
#2061
b10000010100 /
#2062
b10000010101 /
#2063
b10000010110 /
#2064
b10000010111 /
#2065
b10000011000 /
#2066
b10000011001 /
#2067
b10000011010 /
#2068
b10000011011 /
#2069
b10000011100 /
#2070
b10000011101 /
#2071
b10000011110 /
#2072
b10000011111 /
#2073
b10000100000 /
#2074
b10000100001 /
#2075
b10000100010 /
#2076
b10000100011 /
#2077
b10000100100 /
#2078
b10000100101 /
#2079
b10000100110 /
#2080
b10000100111 /
#2081
b10000101000 /
#2082
b10000101001 /
#2083
b10000101010 /
#2084
b10000101011 /
#2085
b10000101100 /
#2086
b10000101101 /
#2087
b10000101110 /
#2088
b10000101111 /
#2089
b10000110000 /
#2090
b10000110001 /
#2091
b10000110010 /
#2092
b10000110011 /
#2093
b10000110100 /
#2094
b10000110101 /
#2095
b10000110110 /
#2096
b10000110111 /
#2097
b10000111000 /
#2098
b10000111001 /
#2099
b10000111010 /
#2100
b10000111011 /
#2101
b10000111100 /
#2102
b10000111101 /
#2103
b10000111110 /
#2104
b10000111111 /
#2105
b10001000000 /
#2106
b10001000001 /
#2107
b10001000010 /
#2108
b10001000011 /
#2109
b10001000100 /
#2110
b10001000101 /
#2111
b10001000110 /
#2112
b10001000111 /
#2113
b10001001000 /
#2114
b10001001001 /
#2115
b10001001010 /
#2116
b10001001011 /
#2117
b10001001100 /
#2118
b10001001101 /
#2119
b10001001110 /
#2120
b10001001111 /
#2121
b10001010000 /
#2122
b10001010001 /
#2123
b10001010010 /
#2124
b10001010011 /
#2125
b10001010100 /
#2126
b10001010101 /
#2127
b10001010110 /
#2128
b10001010111 /
#2129
b10001011000 /
#2130
b10001011001 /
#2131
b10001011010 /
#2132
b10001011011 /
#2133
b10001011100 /
#2134
b10001011101 /
#2135
b10001011110 /
#2136
b10001011111 /
#2137
b10001100000 /
#2138
b10001100001 /
#2139
b10001100010 /
#2140
b10001100011 /
#2141
b10001100100 /
#2142
b10001100101 /
#2143
b10001100110 /
#2144
b10001100111 /
#2145
b10001101000 /
#2146
b10001101001 /
#2147
b10001101010 /
#2148
b10001101011 /
#2149
b10001101100 /
#2150
b10001101101 /
#2151
b10001101110 /
#2152
b10001101111 /
#2153
b10001110000 /
#2154
b10001110001 /
#2155
b10001110010 /
#2156
b10001110011 /
#2157
b10001110100 /
#2158
b10001110101 /
#2159
b10001110110 /
#2160
b10001110111 /
#2161
b10001111000 /
#2162
b10001111001 /
#2163
b10001111010 /
#2164
b10001111011 /
#2165
b10001111100 /
#2166
b10001111101 /
#2167
b10001111110 /
#2168
b10001111111 /
#2169
b10010000000 /
#2170
b10010000001 /
#2171
b10010000010 /
#2172
b10010000011 /
#2173
b10010000100 /
#2174
b10010000101 /
#2175
b10010000110 /
#2176
b10010000111 /
#2177
b10010001000 /
#2178
b10010001001 /
#2179
b10010001010 /
#2180
b10010001011 /
#2181
b10010001100 /
#2182
b10010001101 /
#2183
b10010001110 /
#2184
b10010001111 /
#2185
b10010010000 /
#2186
b10010010001 /
#2187
b10010010010 /
#2188
b10010010011 /
#2189
b10010010100 /
#2190
b10010010101 /
#2191
b10010010110 /
#2192
b10010010111 /
#2193
b10010011000 /
#2194
b10010011001 /
#2195
b10010011010 /
#2196
b10010011011 /
#2197
b10010011100 /
#2198
b10010011101 /
#2199
b10010011110 /
#2200
b10010011111 /
#2201
b10010100000 /
#2202
b10010100001 /
#2203
b10010100010 /
