MATLAB/.Xil/Vivado-31081-badger/hw_ila_data_2/zip_work/waveform.vcd
$date
        2022-Feb-12 17:05:34
$end
$version
        Vivado v2019.1 (64-bit)
$end
$timescale
        1ps
$end
$scope module dut $end
$var reg 3 " i_system_wrapper/system_i/acquisition_axis_0_st_fft_curr [2:0] $end
$var reg 1 % i_system_wrapper/system_i/acquisition_axis_0_event_frame_started $end
$var reg 3 & i_system_wrapper/system_i/acquisition_axis_0_st_fft_next [2:0] $end
$var reg 1 ) i_system_wrapper/system_i/acquisition_axis_0_st_xfft_curr $end
$var reg 1 * i_system_wrapper/system_i/acquisition_axis_0_st_xfft_next $end
$var reg 4 + i_system_wrapper/system_i/acquisition_axis_0_st_curr [3:0] $end
$var reg 17 / i_system_wrapper/system_i/acquisition_axis_0_xfft_cntr [16:0] $end
$var reg 1 @ i_system_wrapper/system_i/acquisition_axis_0_config_xfft_valid $end
$var reg 1 A i_system_wrapper/system_i/acquisition_axis_0_switch_position $end
$var reg 16 B i_system_wrapper/system_i/acquisition_axis_0_config_xfft_data [15:0] $end
$var reg 1 R i_system_wrapper/system_i/acquisition_axis_0_xfft_data_out_tvalid $end
$var reg 1 S i_system_wrapper/system_i/acquisition_axis_0_xfft_data_out_tlast $end
$var reg 1 T i_system_wrapper/system_i/acquisition_axis_0_xfft_tvalid1 $end
$var reg 32 U i_system_wrapper/system_i/acquisition_axis_0_second_peak_data [31:0] $end
$var reg 16 u i_system_wrapper/system_i/acquisition_axis_0_max_peak [15:0] $end
$var reg 16 '" i_system_wrapper/system_i/acquisition_axis_0_max_index [15:0] $end
$var reg 32 7" i_system_wrapper/system_i/acquisition_axis_0_second_peak [31:0] $end
$var reg 1 W" i_system_wrapper/system_i/acquisition_axis_0_max_index_done $end
$var reg 1 X" i_system_wrapper/system_i/acquisition_axis_0_second_peak_valid $end
$var reg 1 Y" i_system_wrapper/system_i/acquisition_axis_0_second_peak_last $end
$var reg 16 Z" i_system_wrapper/system_i/acquisition_axis_0_xfft_index [15:0] $end
$var reg 32 j" i_system_wrapper/system_i/acquisition_axis_0_xfft_data_out_tdata [31:0] $end
$var reg 1 ,# _TRIGGER $end
$var reg 1 -# _WINDOW $end
$var reg 1 .# _GAP $end
$upscope $end
$enddefinitions $end
#0
$dumpvars
b11 "
0%
b11 &
1)
1*
b11 +
b1000000000000 /
1@
0A
b1100 B
0R
0S
0T
b11101111110000100001010101010111 U
b0 u
b0 '"
b0 7"
0W"
0X"
0Y"
b111111110000 Z"
b11101111110000100001010101010111 j"
0,#
1-#
0.#
$end
#4097
1R
b0 Z"
b11110010010001001111101001011110 j"
#4098
b1 Z"
b10111101000001110101000010010 j"
#4099
b10 Z"
b11110000010000101010101100 j"
#4100
b11 Z"
b110001111011111001000001010 j"
#4101
b100 Z"
b10100101110100000001110011111 j"
#4102
b11110010010001001111101001011110 U
b101 Z"
b110010010010001101100001011 j"
#4103
b10111101000001110101000010010 U
b110 Z"
b11011110111111010000100111000111 j"
#4104
b11110000010000101010101100 U
b111 Z"
b11110010010011101110010111011110 j"
#4105
b110001111011111001000001010 U
b1000 Z"
b101110101111110110111000000 j"
#4106
b10100101110100000001110011111 U
b1001 Z"
b111000001001111001110010100 j"
#4107
b110010010010001101100001011 U
b1010 Z"
b1111100110001110110011110110 j"
#4108
b11011110111111010000100111000111 U
b1011 Z"
b100001110010100000001010101000 j"
#4109
1%
b100 &
b11110010010011101110010111011110 U
b1100 Z"
b10000011000110001101101110111 j"
#4110
b100 "
0%
b1 &
0@
1A
b100001100 B
b101110101111110110111000000 U
b1101 Z"
b11101001111100010001011110001100 j"
#4111
b1 "
1@
b111000001001111001110010100 U
b1110 Z"
b11111000101101101110001100110100 j"
#4112
b1111100110001110110011110110 U
b1111 Z"
b11001100011010001001101011110 j"
#4113
b100001110010100000001010101000 U
b10000 Z"
b11100001111010101111111010011011 j"
#4114
b10000011000110001101101110111 U
b10001 Z"
b11001011011111110101100010100 j"
#4115
b11101001111100010001011110001100 U
b10010 Z"
b1110101101100001000100001110 j"
#4116
b11111000101101101110001100110100 U
b10011 Z"
b1011000100010001011001101011 j"
#4117
b11001100011010001001101011110 U
b10100 Z"
b11100110010100100001100000001101 j"
#4118
b11100001111010101111111010011011 U
b10101 Z"
b11110011010100111111010011001111 j"
#4119
b11001011011111110101100010100 U
b10110 Z"
b11111101001010100000001110111001 j"
#4120
b1110101101100001000100001110 U
b10111 Z"
b11110110100010000000001111000001 j"
#4121
b1011000100010001011001101011 U
b11000 Z"
b11101101101110101111101001010000 j"
#4122
b11100110010100100001100000001101 U
b11001 Z"
b11111111011110101110111111110001 j"
#4123
b11110011010100111111010011001111 U
b11010 Z"
b110111111110110011111 j"
#4124
b11111101001010100000001110111001 U
b11011 Z"
b11111010110111101111100011110100 j"
#4125
b11110110100010000000001111000001 U
b11100 Z"
b1100001101110111100111110 j"
#4126
b11101101101110101111101001010000 U
b11101 Z"
b10010101111100000000001001010 j"
#4127
b11111111011110101110111111110001 U
b11110 Z"
b11110111011101110000011110001100 j"
#4128
b110111111110110011111 U
b11111 Z"
b11101010111111010000001000 j"
#4129
b11111010110111101111100011110100 U
b100000 Z"
b11110111100000010111110001 j"
#4130
b1100001101110111100111110 U
b100001 Z"
b11111001100110001111111001110011 j"
#4131
b10010101111100000000001001010 U
b100010 Z"
b11111000000100001111011001010100 j"
#4132
b11110111011101110000011110001100 U
b100011 Z"
b110000000001110100101001100 j"
#4133
b11101010111111010000001000 U
b100100 Z"
b11000101001101111100001001101 j"
#4134
b11110111100000010111110001 U
b100101 Z"
b1101110011000000101110011111 j"
#4135
b11111001100110001111111001110011 U
b100110 Z"
b10000101100000000011110000 j"
#4136
b11111000000100001111011001010100 U
b100111 Z"
b1100100111000000010101001110 j"
#4137
b110000000001110100101001100 U
b101000 Z"
b11111110011011000000011100011000 j"
#4138
b11000101001101111100001001101 U
b101001 Z"
b11011101001111111111110001 j"
#4139
b1101110011000000101110011111 U
b101010 Z"
b10011101011111100100101000 j"
#4140
b10000101100000000011110000 U
b101011 Z"
b11100010001010000001111110101 j"
#4141
b1100100111000000010101001110 U
b101100 Z"
b11111011111000110001101000110010 j"
#4142
b11111110011011000000011100011000 U
b101101 Z"
b10010111001111100010011110 j"
#4143
b11011101001111111111110001 U
b101110 Z"
b1101000010110001001111011111 j"
#4144
b10011101011111100100101000 U
b101111 Z"
b11111001111000000000110010111010 j"
#4145
b11100010001010000001111110101 U
b110000 Z"
b11111100011110000000100101011001 j"
#4146
b11111011111000110001101000110010 U
b110001 Z"
b110010001000000010101110111 j"
#4147
b10010111001111100010011110 U
b110010 Z"
b11111001111110100010010100000000 j"
#4148
b1101000010110001001111011111 U
b110011 Z"
b11010110011011101111110110100001 j"
#4149
b11111001111000000000110010111010 U
b110100 Z"
b1100100011111001011011101 j"
#4150
b11111100011110000000100101011001 U
b110101 Z"
b11110001000000010000000001000111 j"
#4151
b110010001000000010101110111 U
b110110 Z"
b111000010101110110101110101 j"
#4152
b11111001111110100010010100000000 U
b110111 Z"
b111111100110000110111000100 j"
#4153
b11010110011011101111110110100001 U
b111000 Z"
b11110110111111010000000111101110 j"
#4154
b1100100011111001011011101 U
b111001 Z"
b11111111001010010000010000011100 j"
#4155
b11110001000000010000000001000111 U
b111010 Z"
b11110011110011100000001010110010 j"
#4156
b111000010101110110101110101 U
b111011 Z"
b11111010110011101111010001100011 j"
#4157
b111111100110000110111000100 U
b111100 Z"
b1011000001100000000010010000 j"
#4158
b11110110111111010000000111101110 U
b111101 Z"
b11110100111100000000111001011100 j"
#4159
b11111111001010010000010000011100 U
b111110 Z"
b11110010001110101110111010011100 j"
#4160
b11110011110011100000001010110010 U
b111111 Z"
b10010010101101111110010101000 j"
#4161
b11111010110011101111010001100011 U
b1000000 Z"
b11110101000111110001001000100010 j"
#4162
b1011000001100000000010010000 U
b1000001 Z"
b11101111010111101110111011011100 j"
#4163
b11110100111100000000111001011100 U
b1000010 Z"
b1001100011111111010100000010 j"
#4164
b11110010001110101110111010011100 U
b1000011 Z"
b11000101001111100100101010 j"
#4165
b10010010101101111110010101000 U
b1000100 Z"
b10011101011001111111000001011 j"
#4166
b11110101000111110001001000100010 U
b1000101 Z"
b1111100100001010001001110 j"
#4167
b11101111010111101110111011011100 U
b1000110 Z"
b11110011011010001111110101111000 j"
#4168
b1001100011111111010100000010 U
b1000111 Z"
b1001000110001111101011110100 j"
#4169
b11000101001111100100101010 U
b1001000 Z"
b11111011101111110000101001010001 j"
#4170
b10011101011001111111000001011 U
b1001001 Z"
b111000111110101011000110 j"
#4171
b1111100100001010001001110 U
b1001010 Z"
b100010100000110001000111000111 j"
#4172
b11110011011010001111110101111000 U
b1001011 Z"
b11101010001001000001011100000100 j"
#4173
b1001000110001111101011110100 U
b1001100 Z"
b111011110111111100101001100 j"
#4174
b11111011101111110000101001010001 U
b1001101 Z"
b11110101001001100001010111011110 j"
#4175
b111000111110101011000110 U
b1001110 Z"
b11111011000110011111000111011011 j"
#4176
b100010100000110001000111000111 U
b1001111 Z"
b1001000111110000110101001010 j"
#4177
b11101010001001000001011100000100 U
b1010000 Z"
b11111100011010110000100110100100 j"
#4178
b111011110111111100101001100 U
b1010001 Z"
b11110011001101100001000101111000 j"
#4179
b11110101001001100001010111011110 U
b1010010 Z"
b11101101101001001111100011011001 j"
#4180
b11111011000110011111000111011011 U
b1010011 Z"
b11111011110011001111101110101001 j"
#4181
b1001000111110000110101001010 U
b1010100 Z"
b1011010001111011100011110 j"
#4182
b11111100011010110000100110100100 U
b1010101 Z"
b111000001000000011100111000 j"
#4183
b11110011001101100001000101111000 U
b1010110 Z"
b100010000011110010001 j"
#4184
b11101101101001001111100011011001 U
b1010111 Z"
b11110111010110110000111101000111 j"
#4185
b11111011110011001111101110101001 U
b1011000 Z"
b11110100111000011111110100010010 j"
#4186
b1011010001111011100011110 U
b1011001 Z"
b11111101001110000000111000100101 j"
#4187
b111000001000000011100111000 U
b1011010 Z"
b11011101101111000000001010101110 j"
#4188
b100010000011110010001 U
b1011011 Z"
b11110110010101001101101010110110 j"
#4189
b11110111010110110000111101000111 U
b1011100 Z"
b100000011110000000000010001010 j"
#4190
b11110100111000011111110100010010 U
b1011101 Z"
b11101011100100000001001101000110 j"
#4191
b11111101001110000000111000100101 U
b1011110 Z"
b1000100100011110100101110100 j"
#4192
b11011101101111000000001010101110 U
b1011111 Z"
b100001101010001111010100010 j"
#4193
b11110110010101001101101010110110 U
b1100000 Z"
b11101110001011001111101000100110 j"
#4194
b100000011110000000000010001010 U
b1100001 Z"
b11111001111000000000111100010000 j"
#4195
b11101011100100000001001101000110 U
b1100010 Z"
b11101010010011011110111010001100 j"
#4196
b1000100100011110100101110100 U
b1100011 Z"
b1000001111010000010011001001 j"
#4197
b100001101010001111010100010 U
b1100100 Z"
b11101010010101001111100100001010 j"
#4198
b11101110001011001111101000100110 U
b1100101 Z"
b110011001011111100000010110 j"
#4199
b11111001111000000000111100010000 U
b1100110 Z"
b11111010001001101111101111010110 j"
#4200
b11101010010011011110111010001100 U
b1100111 Z"
b101111000000000010011011100 j"
#4201
b1000001111010000010011001001 U
b1101000 Z"
b11101011110111101111111010100110 j"
#4202
b11101010010101001111100100001010 U
b1101001 Z"
b100001011001110110010011101 j"
#4203
b110011001011111100000010110 U
b1101010 Z"
b1111010010101111111111110110 j"
#4204
b11111010001001101111101111010110 U
b1101011 Z"
b11011011010001000010110010 j"
#4205
b101111000000000010011011100 U
b1101100 Z"
b11111011010011010000001111111000 j"
#4206
b11101011110111101111111010100110 U
b1101101 Z"
b11111010111110000001011110101101 j"
#4207
b100001011001110110010011101 U
b1101110 Z"
b11100000000010101111101001001101 j"
#4208
b1111010010101111111111110110 U
b1101111 Z"
b11001111011111110011011011 j"
#4209
b11011011010001000010110010 U
b1110000 Z"
b11101011010000101111111011110011 j"
#4210
b11111011010011010000001111111000 U
b1110001 Z"
b101010110001111110111010101 j"
#4211
b11111010111110000001011110101101 U
b1110010 Z"
b11100100001110000000011111101111 j"
#4212
b11100000000010101111101001001101 U
b1110011 Z"
b11111110100001101110110010000110 j"
#4213
b11001111011111110011011011 U
b1110100 Z"
b11110011110011110001001100011101 j"
#4214
b11101011010000101111111011110011 U
b1110101 Z"
b11011000011001111111001010000111 j"
#4215
b101010110001111110111010101 U
b1110110 Z"
b11101100010000011101101110101100 j"
#4216
b11100100001110000000011111101111 U
b1110111 Z"
b1001010111001101100000100101 j"
#4217
b11111110100001101110110010000110 U
b1111000 Z"
b11010100001101111001011000100 j"
#4218
b11110011110011110001001100011101 U
b1111001 Z"
b1011110111100000101001000010 j"
#4219
b11011000011001111111001010000111 U
b1111010 Z"
b11110011110000101111101110110100 j"
#4220
b11101100010000011101101110101100 U
b1111011 Z"
b10010101000011111001001111110 j"
#4221
b1001010111001101100000100101 U
b1111100 Z"
b11111101011111110001100111110100 j"
#4222
b11010100001101111001011000100 U
b1111101 Z"
b11101001011000001110110011000110 j"
#4223
b1011110111100000101001000010 U
b1111110 Z"
b10001100001111111101001101100 j"
#4224
b11110011110000101111101110110100 U
b1111111 Z"
b11110110011100000000010100001001 j"
#4225
b10010101000011111001001111110 U
b10000000 Z"
b11001001100000000011100010 j"
#4226
b11111101011111110001100111110100 U
b10000001 Z"
b11100100001001100000011111011001 j"
#4227
b11101001011000001110110011000110 U
b10000010 Z"
b11110010100100011101111110011000 j"
#4228
b10001100001111111101001101100 U
b10000011 Z"
b101111100111111001100101000 j"
#4229
b11110110011100000000010100001001 U
b10000100 Z"
b1101100111111010111000110 j"
#4230
b11001001100000000011100010 U
b10000101 Z"
b11110101011011111111100000100000 j"
#4231
b11100100001001100000011111011001 U
b10000110 Z"
b11100000001101110100110111 j"
#4232
b11110010100100011101111110011000 U
b10000111 Z"
b10101101011101111100000100100 j"
#4233
b101111100111111001100101000 U
b10001000 Z"
b1000111011001111010000001100 j"
#4234
b1101100111111010111000110 U
b10001001 Z"
b10110101011001111101101000001 j"
#4235
b11110101011011111111100000100000 U
b10001010 Z"
b10011111011000000100110000110 j"
#4236
b11100000001101110100110111 U
b10001011 Z"
b11111001001100110001010101100110 j"
#4237
b10101101011101111100000100100 U
b10001100 Z"
b11111000010001001110100010100110 j"
#4238
b1000111011001111010000001100 U
b10001101 Z"
b100011000010100000011011000010 j"
#4239
b10110101011001111101101000001 U
b10001110 Z"
b11111010010100110001110001001101 j"
#4240
b10011111011000000100110000110 U
b10001111 Z"
b11110011001100010000101100010100 j"
#4241
b11111001001100110001010101100110 U
b10010000 Z"
b11100110111111100000001011111001 j"
#4242
b11111000010001001110100010100110 U
b10010001 Z"
b11110000100010001110101011111010 j"
#4243
b100011000010100000011011000010 U
b10010010 Z"
b111100001001111001000111010 j"
#4244
b11111010010100110001110001001101 U
b10010011 Z"
b11111011110000110000010101111110 j"
#4245
b11110011001100010000101100010100 U
b10010100 Z"
b11101101010011001111000010101000 j"
#4246
b11100110111111100000001011111001 U
b10010101 Z"
b11110100011110010101001101 j"
#4247
b11110000100010001110101011111010 U
b10010110 Z"
b1100100101011111101011001011 j"
#4248
b111100001001111001000111010 U
b10010111 Z"
b11101111101101111111010001001101 j"
#4249
b11111011110000110000010101111110 U
b10011000 Z"
b10001111000001101001101111000 j"
#4250
b11101101010011001111000010101000 U
b10011001 Z"
b100011000011111111111100010010 j"
#4251
b11110100011110010101001101 U
b10011010 Z"
b10010001100101111110001111011 j"
#4252
b1100100101011111101011001011 U
b10011011 Z"
b10100010000110000100010110000 j"
#4253
b11101111101101111111010001001101 U
b10011100 Z"
b1101111010100000001100000011 j"
#4254
b10001111000001101001101111000 U
b10011101 Z"
b111011001000000110101101011 j"
#4255
b100011000011111111111100010010 U
b10011110 Z"
b1111000110101111010111001111 j"
#4256
b10010001100101111110001111011 U
b10011111 Z"
b11010000010000010001000100101 j"
#4257
b10100010000110000100010110000 U
b10100000 Z"
b11101101100001100001000111011100 j"
#4258
b1101111010100000001100000011 U
b10100001 Z"
b11110111010100100000011010001000 j"
#4259
b111011001000000110101101011 U
b10100010 Z"
b11111001110101011110101101000000 j"
#4260
b1111000110101111010111001111 U
b10100011 Z"
b100010011001010000100001101000 j"
#4261
b11010000010000010001000100101 U
b10100100 Z"
b11111100011111100001011100100010 j"
#4262
b11101101100001100001000111011100 U
b10100101 Z"
b1100101110000111101011011 j"
#4263
b11110111010100100000011010001000 U
b10100110 Z"
b11110100001010000000101000000000 j"
#4264
b11111001110101011110101101000000 U
b10100111 Z"
b11001011000000111111100011 j"
#4265
b100010011001010000100001101000 U
b10101000 Z"
b11100011110011100001001111011101 j"
#4266
b11111100011111100001011100100010 U
b10101001 Z"
b11100110011001111111010110101100 j"
#4267
b1100101110000111101011011 U
b10101010 Z"
b11111011100011001110111000100101 j"
#4268
b11110100001010000000101000000000 U
b10101011 Z"
b10000011000000010110000001 j"
#4269
b11001011000000111111100011 U
b10101100 Z"
b11110001010010001111011111110001 j"
#4270
b11100011110011100001001111011101 U
b10101101 Z"
b10101010101111111110100010 j"
#4271
b11100110011001111111010110101100 U
b10101110 Z"
b11110000011011001111100111101010 j"
#4272
b11111011100011001110111000100101 U
b10101111 Z"
b11111101110011001111100011000101 j"
#4273
b10000011000000010110000001 U
b10110000 Z"
b11110111010010001110101011101111 j"
#4274
b11110001010010001111011111110001 U
b10110001 Z"
b10110101100011111101000011011 j"
#4275
b10101010101111111110100010 U
b10110010 Z"
b11111100001110100000001110000100 j"
#4276
b11110000011011001111100111101010 U
b10110011 Z"
b111000111100000010010001001 j"
#4277
b11111101110011001111100011000101 U
b10110100 Z"
b11101100111110001111101010001111 j"
#4278
b11110111010010001110101011101111 U
b10110101 Z"
b10010101100001111010000001110 j"
#4279
b10110101100011111101000011011 U
b10110110 Z"
b11111000001011110000110100011100 j"
#4280
b11111100001110100000001110000100 U
b10110111 Z"
b11111101011000001111100110010011 j"
#4281
b111000111100000010010001001 U
b10111000 Z"
b11101101110101101111101100001000 j"
#4282
b11101100111110001111101010001111 U
b10111001 Z"
b1011001111111101111001001110 j"
#4283
b10010101100001111010000001110 U
b10111010 Z"
b11000101010100000011101101100 j"
#4284
b11111000001011110000110100011100 U
b10111011 Z"
b11111110101110100000100100111010 j"
#4285
b11111101011000001111100110010011 U
b10111100 Z"
b11111100010010101111110001001100 j"
#4286
b11101101110101101111101100001000 U
b10111101 Z"
b110011110001111110010111100 j"
#4287
b1011001111111101111001001110 U
b10111110 Z"
b1101110010000000100000000 j"
#4288
b11000101010100000011101101100 U
b10111111 Z"
b10000011000000001001001001 j"
#4289
b11111110101110100000100100111010 U
b11000000 Z"
b11111101000101011111101001010100 j"
#4290
b11111100010010101111110001001100 U
b11000001 Z"
b1010010111010000010010110000 j"
#4291
b110011110001111110010111100 U
b11000010 Z"
b11101111100000000000000011000010 j"
#4292
b1101110010000000100000000 U
b11000011 Z"
b111111110011110111011000100 j"
#4293
b10000011000000001001001001 U
b11000100 Z"
b100010001111111111110001010 j"
#4294
b11111101000101011111101001010100 U
b11000101 Z"
b1101011101001111100100100010 j"
#4295
b1010010111010000010010110000 U
b11000110 Z"
b101000000000000101101010001 j"
#4296
b11101111100000000000000011000010 U
b11000111 Z"
b11111110110101111111101110000011 j"
#4297
b111111110011110111011000100 U
b11001000 Z"
b1010100010001111111011000000 j"
#4298
b100010001111111111110001010 U
b11001001 Z"
b110110111000000011101111100 j"
#4299
b1101011101001111100100100010 U
b11001010 Z"
b100001101010000000010111100 j"
#4300
b101000000000000101101010001 U
b11001011 Z"
b1101100100110001000000101100 j"
#4301
b11111110110101111111101110000011 U
b11001100 Z"
b11110001110001110001000111001010 j"
#4302
b1010100010001111111011000000 U
b11001101 Z"
b11110101100010000000010011001000 j"
#4303
b110110111000000011101111100 U
b11001110 Z"
b11101000000101101111101100000001 j"
#4304
b100001101010000000010111100 U
b11001111 Z"
b11001000101110011010001000 j"
#4305
b1101100100110001000000101100 U
b11010000 Z"
b1101110001101111101110001100 j"
#4306
b11110001110001110001000111001010 U
b11010001 Z"
b1110110010000000010100100001 j"
#4307
b11110101100010000000010011001000 U
b11010010 Z"
b11111100100100010000111100001000 j"
#4308
b11101000000101101111101100000001 U
b11010011 Z"
b11111010001010001111111110111111 j"
#4309
b11001000101110011010001000 U
b11010100 Z"
b11111000110111111111111111011100 j"
#4310
b1101110001101111101110001100 U
b11010101 Z"
b1011001101111001110100100 j"
#4311
b1110110010000000010100100001 U
b11010110 Z"
b1010011000110000001011010011 j"
#4312
b11111100100100010000111100001000 U
b11010111 Z"
b11111011000110010000000001101101 j"
#4313
b11111010001010001111111110111111 U
b11011000 Z"
b1110100100011111001100001000 j"
#4314
b11111000110111111111111111011100 U
b11011001 Z"
b10011110100000001011110010110 j"
#4315
b1011001101111001110100100 U
b11011010 Z"
b11110001111100000000101110110010 j"
#4316
b1010011000110000001011010011 U
b11011011 Z"
b1000110001000000011111100100 j"
#4317
b11111011000110010000000001101101 U
b11011100 Z"
b11101110010110010001100011010010 j"
#4318
b1110100100011111001100001000 U
b11011101 Z"
b11100001100000111111101111101101 j"
#4319
b10011110100000001011110010110 U
b11011110 Z"
b11110000111011001101110101011010 j"
#4320
b11110001111100000000101110110010 U
b11011111 Z"
b100111110000101110101010101101 j"
#4321
b1000110001000000011111100100 U
b11100000 Z"
b10100001111000010001001101011 j"
#4322
b11101110010110010001100011010010 U
b11100001 Z"
b11110101000100010001011011100110 j"
#4323
b11100001100000111111101111101101 U
b11100010 Z"
b11100111000111100001011000010000 j"
#4324
b11110000111011001101110101011010 U
b11100011 Z"
b11010000100001001110101001110010 j"
#4325
b100111110000101110101010101101 U
b11100100 Z"
b10111000100001100110000010110 j"
#4326
b10100001111000010001001101011 U
b11100101 Z"
b100001010100010010000100001110 j"
#4327
b11110101000100010001011011100110 U
b11100110 Z"
b11011101011001100000011001011100 j"
#4328
b11100111000111100001011000010000 U
b11100111 Z"
b101001111001110110001111110 j"
#4329
b11010000100001001110101001110010 U
b11101000 Z"
b1000101000111111100100011010 j"
#4330
b10111000100001100110000010110 U
b11101001 Z"
b11000111110010001000001101001 j"
#4331
b100001010100010010000100001110 U
b11101010 Z"
b11101010101101100001110011000000 j"
#4332
b11011101011001100000011001011100 U
b11101011 Z"
b11101011100100101111111001111101 j"
#4333
b101001111001110110001111110 U
b11101100 Z"
b11100110110001001111001010101101 j"
#4334
b1000101000111111100100011010 U
b11101101 Z"
b1000110010101101111011111101 j"
#4335
b11000111110010001000001101001 U
b11101110 Z"
b11111000100000000001010001111 j"
#4336
b11101010101101100001110011000000 U
b11101111 Z"
b11111110001110100010010010101111 j"
#4337
b11101011100100101111111001111101 U
b11110000 Z"
b11100000000000011111001011111010 j"
#4338
b11100110110001001111001010101101 U
b11110001 Z"
b10110101000110000000111000000 j"
#4339
b1000110010101101111011111101 U
b11110010 Z"
b11100000101101000000110110001011 j"
#4340
b11111000100000000001010001111 U
b11110011 Z"
b101101001001111001101010000 j"
#4341
b11111110001110100010010010101111 U
b11110100 Z"
b11100010001010000000110111101000 j"
#4342
b11100000000000011111001011111010 U
b11110101 Z"
b11110011001110001101111110000010 j"
#4343
b10110101000110000000111000000 U
b11110110 Z"
b11111001000000001110111000010000 j"
#4344
b11100000101101000000110110001011 U
b11110111 Z"
b10101111100001110010111010001 j"
#4345
b101101001001111001101010000 U
b11111000 Z"
b10100001110000000111011101 j"
#4346
b11100010001010000000110111101000 U
b11111001 Z"
b100001111001001111001010010010 j"
#4347
b11110011001110001101111110000010 U
b11111010 Z"
b11110101011100000010110110001111 j"
#4348
b11111001000000001110111000010000 U
b11111011 Z"
b11101100000100001101111001100100 j"
#4349
b10101111100001110010111010001 U
b11111100 Z"
b1110111001100000011100010110 j"
#4350
b10100001110000000111011101 U
b11111101 Z"
b11111100011001101110111001111110 j"
#4351
b100001111001001111001010010010 U
b11111110 Z"
b10001100011000000111011011001 j"
#4352
b11110101011100000010110110001111 U
b11111111 Z"
b11101110011110101111101110011101 j"
#4353
b11101100000100001101111001100100 U
b100000000 Z"
b1000011110101111101001101100 j"
#4354
b1110111001100000011100010110 U
b100000001 Z"
b1001101111101001011001 j"
#4355
b11111100011001101110111001111110 U
b100000010 Z"
b111111101100000010000111101 j"
#4356
b10001100011000000111011011001 U
b100000011 Z"
b11111010100000001111101000011100 j"
#4357
b11101110011110101111101110011101 U
b100000100 Z"
b1101101100111111110010111110 j"
#4358
b1000011110101111101001101100 U
b100000101 Z"
b101100011110000100101110000 j"
#4359
b1001101111101001011001 U
b100000110 Z"
b11111001101110000000100010101001 j"
#4360
b111111101100000010000111101 U
b100000111 Z"
b11111100110100111111101100000111 j"
#4361
b11111010100000001111101000011100 U
b100001000 Z"
b11111011111011010000011010100110 j"
#4362
b1101101100111111110010111110 U
b100001001 Z"
b11110101110011001111001010011110 j"
#4363
b101100011110000100101110000 U
b100001010 Z"
b111011010001111011000111101 j"
#4364
b11111001101110000000100010101001 U
b100001011 Z"
b1101000001101111101011111011 j"
#4365
b11111100110100111111101100000111 U
b100001100 Z"
b111110100000111110011011 j"
#4366
b11111011111011010000011010100110 U
b100001101 Z"
b11110100011010101111000101000010 j"
#4367
b11110101110011001111001010011110 U
b100001110 Z"
b1011111100011111010010001100 j"
#4368
b111011010001111011000111101 U
b100001111 Z"
b11000101101111111000011010100 j"
#4369
b1101000001101111101011111011 U
b100010000 Z"
b100001001011100010001010111100 j"
#4370
b111110100000111110011011 U
b100010001 Z"
b11101100011101110001001011010010 j"
#4371
b11110100011010101111000101000010 U
b100010010 Z"
b100011011000000011111011000 j"
#4372
b1011111100011111010010001100 U
b100010011 Z"
b11110011101111100000000100111100 j"
#4373
b11000101101111111000011010100 U
b100010100 Z"
b10111010110110000100110000110 j"
#4374
b100001001011100010001010111100 U
b100010101 Z"
b11101001010010000010000100001101 j"
#4375
b11101100011101110001001011010010 U
b100010110 Z"
b11110000101000111111011011010000 j"
#4376
b100011011000000011111011000 U
b100010111 Z"
b11111010011100110000001011011001 j"
#4377
b11110011101111100000000100111100 U
b100011000 Z"
b11001010000010000110000 j"
#4378
b10111010110110000100110000110 U
b100011001 Z"
b11100111110010110000100110001100 j"
#4379
b11101001010010000010000100001101 U
b100011010 Z"
b11111110000000101110011001101011 j"
#4380
b11110000101000111111011011010000 U
b100011011 Z"
b111100011000000101001010010 j"
#4381
b11111010011100110000001011011001 U
b100011100 Z"
b10100111111011011100010 j"
#4382
b11001010000010000110000 U
b100011101 Z"
b1110111101000001101000110011 j"
#4383
b11100111110010110000100110001100 U
b100011110 Z"
b11100011100101110000111001111100 j"
#4384
b11111110000000101110011001101011 U
b100011111 Z"
b11110110101101000000001100001001 j"
#4385
b111100011000000101001010010 U
b100100000 Z"
b11100001011010111111111010011000 j"
#4386
b10100111111011011100010 U
b100100001 Z"
b11000010011110011010110111 j"
#4387
b1110111101000001101000110011 U
b100100010 Z"
b110110111010001001100110011 j"
#4388
b11100011100101110000111001111100 U
b100100011 Z"
b11100011010101000000001100001010 j"
#4389
b11110110101101000000001100001001 U
b100100100 Z"
b11111101101011101111011110111101 j"
#4390
b11100001011010111111111010011000 U
b100100101 Z"
b11100011101010000001000100010001 j"
#4391
b11000010011110011010110111 U
b100100110 Z"
b11011010001011011101010110110111 j"
#4392
b110110111010001001100110011 U
b100100111 Z"
b10101000000011110010001001110 j"
#4393
b11100011010101000000001100001010 U
b100101000 Z"
b11111101101111001111100100101010 j"
#4394
b11111101101011101111011110111101 U
b100101001 Z"
b1101010010001111010011110111 j"
#4395
b11100011101010000001000100010001 U
b100101010 Z"
b11111000110101100000001111101110 j"
#4396
b11011010001011011101010110110111 U
b100101011 Z"
b1010101101110111110101001 j"
#4397
b10101000000011110010001001110 U
b100101100 Z"
b11111111101101101111111110010100 j"
#4398
b11111101101111001111100100101010 U
b100101101 Z"
b11111110100110011110111001001111 j"
#4399
b1101010010001111010011110111 U
b100101110 Z"
b1111100010001111011110100011 j"
#4400
b11111000110101100000001111101110 U
b100101111 Z"
b1001111011100000011010110110 j"
#4401
b1010101101110111110101001 U
b100110000 Z"
b11111001010010001111111111001101 j"
#4402
b11111111101101101111111110010100 U
b100110001 Z"
b1110100111101111011001101110 j"
#4403
b11111110100110011110111001001111 U
b100110010 Z"
b1000001001000001001011000111 j"
#4404
b1111100010001111011110100011 U
b100110011 Z"
b11111011010001010000100010110101 j"
#4405
b1001111011100000011010110110 U
b100110100 Z"
b11110011100001100001001001001111 j"
#4406
b11111001010010001111111111001101 U
b100110101 Z"
b11100011111000001111010110100101 j"
#4407
b1110100111101111011001101110 U
b100110110 Z"
b100110110001111001111110110 j"
#4408
b1000001001000001001011000111 U
b100110111 Z"
b11101111111010100000100010101000 j"
#4409
b11111011010001010000100010110101 U
b100111000 Z"
b11110000111101101110000100010010 j"
#4410
b11110011100001100001001001001111 U
b100111001 Z"
b11010001101001111110100000000 j"
#4411
b11100011111000001111010110100101 U
b100111010 Z"
b11101011001000110001000011000110 j"
#4412
b100110110001111001111110110 U
b100111011 Z"
b11110011010001101110100000111001 j"
#4413
b11101111111010100000100010101000 U
b100111100 Z"
b100011101111011100111000 j"
#4414
b11110000111101101110000100010010 U
b100111101 Z"
b10101011001111000101010000 j"
#4415
b11010001101001111110100000000 U
b100111110 Z"
b101011010000000001011100001 j"
#4416
b11101011001000110001000011000110 U
b100111111 Z"
b11110110100000101111110110011110 j"
#4417
b11110011010001101110100000111001 U
b101000000 Z"
b11111000011110111111100001110101 j"
#4418
b100011101111011100111000 U
b101000001 Z"
b11111001000011011111011010110000 j"
#4419
b10101011001111000101010000 U
b101000010 Z"
b11110001111010001111001010111110 j"
#4420
b101011010000000001011100001 U
b101000011 Z"
b11111100100100101110000000111010 j"
