MATLAB/.Xil/Vivado-16972-badger/hw_ila_data_1/zip_work/waveform.vcd
$date
        2022-Feb-12 04:55:37
$end
$version
        Vivado v2019.1 (64-bit)
$end
$timescale
        1ps
$end
$scope module dut $end
$var reg 1 " i_system_wrapper/system_i/acq_data_fifo_m_axis_tvalid $end
$var reg 16 # i_system_wrapper/system_i/acq_l1_data_slice_Dout [15:0] $end
$var reg 16 3 i_system_wrapper/system_i/acq_l5_data_slice_Dout [15:0] $end
$var reg 32 C i_system_wrapper/system_i/trk_data_fifo_m_axis_tdata [31:0] $end
$var reg 1 c i_system_wrapper/system_i/trk_data_fifo_m_axis_tvalid $end
$var reg 1 d _TRIGGER $end
$var reg 1 e _WINDOW $end
$var reg 1 f _GAP $end
$upscope $end
$enddefinitions $end
#0
$dumpvars
0"
b1111111111111111 #
b1111111111111111 3
b111111111111111111111110 C
1c
0d
1e
0f
$end
#1
0c
#4
b11111111111111111111111111111110 C
1c
#5
0c
#9
b11111111000000001111111111111110 C
1c
#10
0c
#13
b111111111111111111111110 C
1c
#14
0c
#18
b11111111111111111111111111111110 C
1c
#19
0c
#23
b111111111111111111111110 C
1c
#24
0c
#27
1"
b1111111111111110 #
1c
#28
0"
0c
#32
b11111111000000001111111111111110 C
1c
#33
0c
#36
1c
#37
0c
#41
1c
#42
0c
#45
b1111111111111110 C
1c
#46
0c
#50
b11111111111111111111111111111110 C
1c
#51
0c
#55
1c
#56
0c
#59
b1111111111111110 C
1c
#60
0c
#64
1c
#65
0c
#68
b11111111111111111111111111111110 C
1c
#69
0c
#73
1c
#74
0c
#77
1c
#78
0c
#82
b1111111111111110 C
1c
#83
0c
#87
b111111111111111111111110 C
1c
#88
0c
#91
b1111111111111110 C
1c
#92
0c
#96
b111111111111111111111110 C
1c
#97
0c
#100
b11111110 C
1c
#101
0c
#105
b11111111000000001111111111111110 C
1c
#106
0c
#109
b11111111111111111111111111111110 C
1c
#110
0c
#114
b1111111111111110 C
1c
#115
0c
#119
1"
b1111111111111111 #
b11111111111111111111111111111110 C
1c
#120
0"
0c
#123
b111111111111111111111110 C
1c
#124
0c
#128
b11111111111111111111111111111110 C
1c
#129
0c
#132
b11111111000000001111111111111110 C
1c
#133
0c
#137
b11111111111111111111111111111110 C
1c
#138
0c
#142
b1111111111111110 C
1c
#143
0c
#146
b111111111111111111111110 C
1c
#147
0c
#151
1c
#152
0c
#155
b1111111111111110 C
1c
#156
0c
#160
b11111111000000001111111111111110 C
1c
#161
0c
#164
b1111111111111110 C
1c
#165
0c
#169
b111111111111111111111110 C
1c
#170
0c
#174
1c
#175
0c
#178
b1111111111111110 C
1c
#179
0c
#183
b111111111111111111111110 C
1c
#184
0c
#187
1c
#188
0c
#192
b11111111111111111111111111111110 C
1c
#193
0c
#196
1c
#197
0c
#201
b111111111111111111111110 C
1c
#202
0c
#206
1c
#207
0c
#210
1"
b11111111111111111111111111111110 C
1c
#211
0"
0c
#215
b111111111111111111111110 C
1c
#216
0c
#219
b11111111000000001111111111111110 C
1c
#220
0c
#224
b1111111111111110 C
1c
#225
0c
#229
1c
#230
0c
#233
1c
#234
0c
#238
1c
#239
0c
#242
b111111111111111111111110 C
1c
#243
0c
#247
b1111111111111110 C
1c
#248
0c
#251
b111111110000000000000000 C
1c
#252
0c
#256
b11111111111111110000000000000001 C
1c
#257
0c
#261
b11111111000000000000000000000001 C
1c
#262
0c
#265
1c
#266
0c
#270
b111111110000000000000001 C
1c
#271
0c
#274
b11111111111111110000000000000000 C
1c
#275
0c
#279
b11111111000000000000000000000001 C
1c
#280
0c
#283
b11111111111111110000000000000000 C
1c
#284
0c
#288
b111111110000000000000001 C
1c
#289
0c
#293
b11111111111111110000000000000001 C
1c
#294
0c
#297
b11111111000000000000000000000000 C
1c
#298
0c
#302
1"
b111111110000000000000001 C
1c
#303
0"
0c
#306
1c
#307
0c
#311
1c
#312
0c
#315
b11111111111111110000000000000001 C
1c
#316
0c
#320
b0 C
1c
#321
0c
#325
b111111110000000000000001 C
1c
#326
0c
#329
b11111111111111110000000000000001 C
1c
#330
0c
#334
1c
#335
0c
#338
1c
#339
0c
#343
b11111111000000000000000000000001 C
1c
#344
0c
#348
1c
#349
0c
#352
b1 C
1c
#353
0c
#357
b11111111111111110000000000000001 C
1c
#358
0c
#361
b1 C
1c
#362
0c
#366
b11111111000000000000000000000001 C
1c
#367
0c
#370
b11111111111111110000000000000001 C
1c
#371
0c
#375
b111111110000000000000001 C
1c
#376
0c
#380
1c
#381
0c
#384
b1 C
1c
#385
0c
#389
b11111111000000000000000000000001 C
1c
#390
0c
#393
1"
b11111111111111110000000000000000 C
1c
#394
0"
0c
#398
b11111111111111110000000000000001 C
1c
#399
0c
#402
b11111111111111110000000000000000 C
1c
#403
0c
#407
b1 C
1c
#408
0c
#412
1c
#413
0c
#416
b111111110000000000000001 C
1c
#417
0c
#421
1c
#422
0c
#425
b11111111111111110000000000000001 C
1c
#426
0c
#430
1c
#431
0c
#435
b11111111000000001111111111111111 C
1c
#436
0c
#439
b1111111111111110 C
1c
#440
0c
#444
b111111111111111111111110 C
1c
#445
0c
#448
1c
#449
0c
#453
1c
#454
0c
#457
b11111111000000001111111111111110 C
1c
#458
0c
#462
b111111111111111111111110 C
1c
#463
0c
#467
b1111111111111110 C
1c
#468
0c
#471
b11111111000000001111111111111110 C
1c
#472
0c
#476
b11111111111111111111111111111110 C
1c
#477
0c
#480
b111111111111111111111110 C
1c
#481
0c
#485
1"
b1111111111111110 #
b11111111111111111111111111111110 C
1c
#486
0"
0c
#489
1c
#490
0c
#494
b11111111000000001111111111111110 C
1c
#495
0c
#499
b111111111111111111111110 C
1c
#500
0c
#503
b1111111111111110 C
1c
#504
0c
#508
b11111111000000001111111111111110 C
1c
#509
0c
#512
b1111111111111110 C
1c
1d
#513
0c
#517
b11111111000000001111111111111110 C
1c
#518
0c
#521
1c
#522
0c
#526
1c
#527
0c
#531
1c
#532
0c
#535
1c
#536
0c
#540
b11111111111111111111111111111110 C
1c
#541
0c
#544
1c
#545
0c
#549
b111111111111111111111110 C
1c
#550
0c
#554
b11111111111111111111111111111110 C
1c
#555
0c
#558
b11111111000000001111111111111110 C
1c
#559
0c
#563
1c
#564
0c
#567
b11111111111111111111111111111110 C
1c
#568
0c
#572
1c
#573
0c
#576
1"
b1111111111111111 #
b11111111000000001111111111111110 C
1c
#577
0"
0c
#581
b111111111111111111111110 C
1c
#582
0c
#586
b1111111111111110 C
1c
#587
0c
#590
b11111111111111111111111111111110 C
1c
#591
0c
#595
1c
#596
0c
#599
b111111111111111111111110 C
1c
#600
0c
#604
b11111111111111111111111111111110 C
1c
#605
0c
#608
1c
#609
0c
#613
b111111111111111111111110 C
1c
#614
0c
#618
b11111111111111111111111111111110 C
1c
#619
0c
#622
b11111111000000001111111111111110 C
1c
#623
0c
#627
1c
#628
0c
#631
1c
#632
0c
#636
1c
#637
0c
#640
1c
#641
0c
#645
b111111111111111111111110 C
1c
#646
0c
#650
b1111111111111110 C
1c
#651
0c
#654
b11111111000000001111111111111110 C
1c
#655
0c
#659
b1111111111111110 C
1c
#660
0c
#663
b11111111111111111111111111111110 C
1c
#664
0c
#668
1"
b1111111100000000 #
b11111111000000001111111111111110 C
1c
#669
0"
0c
#673
b111111111111111111111110 C
1c
#674
0c
#677
b11111111111111111111111111111110 C
1c
#678
0c
#682
b111111111111111111111110 C
1c
#683
0c
#686
b11111111111111111111111111111110 C
1c
#687
0c
#691
b111111111111111111111110 C
1c
#692
0c
#695
1c
#696
0c
#700
b1111111111111110 C
1c
#701
0c
#705
b11111111111111111111111111111110 C
1c
#706
0c
#709
b1111111111111110 C
1c
#710
0c
#714
b111111111111111111111110 C
1c
#715
0c
#718
b11111111111111111111111111111110 C
1c
#719
0c
#723
1c
#724
0c
#727
b1111111111111110 C
1c
#728
0c
#732
b111111111111111111111110 C
1c
#733
0c
#737
b11111111111111111111111111111110 C
1c
#738
0c
#741
1c
#742
0c
#746
b1111111111111110 C
1c
#747
0c
#750
1c
#751
0c
#755
b11111111111111111111111111111110 C
1c
#756
0c
#760
1"
1c
#761
0"
0c
#764
1c
#765
0c
#769
b11111111000000001111111111111110 C
1c
#770
0c
#773
1c
#774
0c
#778
b111111111111111111111110 C
1c
#779
0c
#782
b11111111111111111111111111111110 C
1c
#783
0c
#787
b11111111000000001111111111111110 C
1c
#788
0c
#792
b1111111111111110 C
1c
#793
0c
#796
b11111111111111111111111111111110 C
1c
#797
0c
#801
b111111111111111111111110 C
1c
#802
0c
#805
1c
#806
0c
#810
b11111111111111111111111111111110 C
1c
#811
0c
#814
1c
#815
0c
#819
1c
#820
0c
#824
1c
#825
0c
#828
1c
#829
0c
#833
b1111111111111110 C
1c
#834
0c
#837
b11111111000000001111111111111110 C
1c
#838
0c
#842
1c
#843
0c
#846
b11111111111111111111111111111110 C
1c
#847
0c
#851
1"
b1111111111111111 #
1c
#852
0"
0c
#856
b11111111000000001111111111111110 C
1c
#857
0c
#860
1c
#861
0c
#865
1c
#866
0c
#869
b1111111111111110 C
1c
#870
0c
#874
b11111111111111111111111111111110 C
1c
#875
0c
#879
1c
#880
0c
#883
1c
#884
0c
#888
b111111111111111111111110 C
1c
#889
0c
#892
b1111111111111110 C
1c
#893
0c
#897
b111111111111111111111110 C
1c
#898
0c
#901
b11111111000000001111111111111110 C
1c
#902
0c
#906
b111111111111111111111110 C
1c
#907
0c
#911
b11111111111111111111111111111110 C
1c
#912
0c
#915
b11111111000000001111111111111110 C
1c
#916
0c
#920
b11111111111111111111111111111110 C
1c
#921
0c
#924
1c
#925
0c
#929
1c
#930
0c
#933
b11111111000000001111111111111110 C
1c
#934
0c
#938
1c
#939
0c
#943
1"
b1111111111111110 #
b11111111111111111111111111111110 C
1c
#944
0"
0c
#947
b11111111000000001111111111111110 C
1c
#948
0c
#952
b1111111111111110 C
1c
#953
0c
#956
b11111111111111111111111111111110 C
1c
#957
0c
#961
b11111111000000001111111111111110 C
1c
#962
0c
#965
b111111111111111111111110 C
1c
#966
0c
#970
b11111111111111111111111111111110 C
1c
#971
0c
#975
b11111111000000001111111111111110 C
1c
#976
0c
#979
b1111111111111110 C
1c
#980
0c
#984
b111111110000000011111111 C
1c
#985
0c
#988
b111111110000000000000001 C
1c
#989
0c
#993
b11111111000000000000000000000000 C
1c
#994
0c
#998
b1 C
1c
#999
0c
#1002
b11111111000000000000000000000001 C
1c
#1003
0c
#1007
b11111111111111110000000000000001 C
1c
#1008
0c
#1011
b111111110000000000000001 C
1c
#1012
0c
#1016
b11111111000000000000000000000001 C
1c
#1017
0c
#1020
b11111111111111110000000000000001 C
1c
#1021
0c
