MATLAB/.Xil/Vivado-8275-badger/hw_ila_data_1/zip_work/waveform.vcd
$date
        2022-Feb-12 19:14:34
$end
$version
        Vivado v2019.1 (64-bit)
$end
$timescale
        1ps
$end
$scope module dut $end
$var reg 1 " i_system_wrapper/system_i/acq_data_fifo_m_axis_tvalid $end
$var reg 16 # i_system_wrapper/system_i/acq_l1_data_slice_Dout [15:0] $end
$var reg 16 3 i_system_wrapper/system_i/acq_l5_data_slice_Dout [15:0] $end
$var reg 32 C i_system_wrapper/system_i/trk_data_fifo_m_axis_tdata [31:0] $end
$var reg 1 c i_system_wrapper/system_i/trk_data_fifo_m_axis_tvalid $end
$var reg 1 d _TRIGGER $end
$var reg 1 e _WINDOW $end
$var reg 1 f _GAP $end
$upscope $end
$enddefinitions $end
#0
$dumpvars
0"
b1111111111111000 #
b1111111111111111 3
b11111111111111110000000000011011 C
0c
0d
1e
0f
$end
#2
b100010111 C
1c
#3
0c
#7
b11000000010000000000010100 C
1c
#8
0c
#11
b11111110000000011111111100010110 C
1c
#12
0c
#16
b111111100000010100011000 C
1c
#17
0c
#20
1"
b1111111111110010 #
b0 3
b11111111000000011111111100010101 C
1c
#21
0"
0c
#25
b11111111000000000000001100011000 C
1c
#26
0c
#30
b11111110111111111000010101 C
1c
#31
0c
#34
b10000001001111101100011000 C
1c
#35
0c
#39
b11111101111111101111110000010011 C
1c
#40
0c
#43
b11111110111111100000000100010111 C
1c
#44
0c
#48
b11111111000000001111111000010110 C
1c
#49
0c
#52
b11111111101111110100011010 C
1c
#53
0c
#57
b10111111101111111000010111 C
1c
#58
0c
#62
b11111110000000110000000100011000 C
1c
#63
0c
#66
b10111111101111110100010111 C
1c
#67
0c
#71
b11111101111111110000000100010101 C
1c
#72
0c
#75
b11111110111111100000000100011000 C
1c
#76
0c
#80
b11111101000000010000001011110110 C
1c
#81
0c
#84
b11111110111111111111100111100111 C
1c
#85
0c
#89
b111111101111101111101001 C
1c
#90
0c
#94
b100000000101111101011100100 C
1c
#95
0c
#98
b1011100111 C
1c
#99
0c
#103
b11111110000000101111110011100110 C
1c
#104
0c
#107
b11111110000000001111111111101000 C
1c
#108
0c
#112
1"
b1111111100000110 #
b11111111 3
b11111100000000001111110111100111 C
1c
#113
0"
0c
#117
b11111101000000000000010011101010 C
1c
#118
0c
#121
b11111111111111110000001011101011 C
1c
#122
0c
#126
b11100101 C
1c
#127
0c
#130
b1000000011111101011101000 C
1c
#131
0c
#135
b11111111000000011111111111101000 C
1c
#136
0c
#139
b11111111000000011111101111101001 C
1c
#140
0c
#144
b1000000011111110011101000 C
1c
#145
0c
#149
b11111111111111111111110111100111 C
1c
#150
0c
#153
b11111110111111101111111111100110 C
1c
#154
0c
#158
b10111111001111110011100111 C
1c
#159
0c
#162
b11111110111100111 C
1c
#163
0c
#167
b11111101000000001111111011100100 C
1c
#168
0c
#171
b11111111111111111111111011101010 C
1c
#172
0c
#176
b111111101011100110 C
1c
#177
0c
#181
b11111111000000100000000011100111 C
1c
#182
0c
#185
b11111111000000001111111111101001 C
1c
#186
0c
#190
b10000000000000001011100101 C
1c
#191
0c
#194
b1111111101111101111101010 C
1c
#195
0c
#199
b11111101000000001111110011100111 C
1c
#200
0c
#204
1"
b1111111100001011 #
b1111111111111111 3
b11111111111111101111110011100110 C
1c
#205
0"
0c
#208
b11111101111111101111111111101000 C
1c
#209
0c
#213
b11111111111110111111110111101001 C
1c
#214
0c
#217
b111111101111111011100110 C
1c
#218
0c
#222
b11111111111111011111110011100111 C
1c
#223
0c
#226
b1111111110000000111100111 C
1c
#227
0c
#231
b111111100000000011100111 C
1c
#232
0c
#236
b1111111100000000011101100 C
1c
#237
0c
#240
b11111111111111111111100110 C
1c
#241
0c
#245
b111111110000000011101001 C
1c
#246
0c
#249
b111111111111101111101001 C
1c
#250
0c
#254
b11111110111101001 C
1c
#255
0c
#258
b11111111111111111111110011100110 C
1c
#259
0c
#263
b111111111111110000001000 C
1c
#264
0c
#268
b101111110000011000 C
1c
#269
0c
#272
b11111110111111101111111000010111 C
1c
#273
0c
#277
b1111111101111110000011000 C
1c
#278
0c
#281
b1111111111111110100010100 C
1c
#282
0c
#286
b1111111011111111100010100 C
1c
#287
0c
#290
b1111111000010011 C
1c
#291
0c
#295
1"
b1111110100010101 C
1c
#296
0"
0c
#300
b11111111110000001000010110 C
1c
#301
0c
#304
b11000000001111111000011000 C
1c
#305
0c
#309
b11111110000000011111101100010111 C
1c
#310
0c
#313
b11111101111111111111101000010011 C
1c
#314
0c
#318
b111111011111101100010101 C
1c
#319
0c
#323
b11111111111111101111100100010101 C
1c
#324
0c
#327
b111111111111101100010101 C
1c
#328
0c
#332
b1111111111111111000010100 C
1c
#333
0c
#336
b111111101111110100010101 C
1c
#337
0c
#341
b1111111100000000000010111 C
1c
#342
0c
#345
b11111111000000100000000000011000 C
1c
#346
0c
#350
b10000000011111111000010111 C
1c
#351
0c
#355
b11111101111111101111111000010101 C
1c
#356
0c
#359
b111111111111101100010111 C
1c
#360
0c
#364
b11111111111111100000000100011010 C
1c
#365
0c
#368
b111111100000000100011000 C
1c
#369
0c
#373
b11111110000000011111111000011000 C
1c
#374
0c
#377
b11111101000000101111110100010100 C
1c
#378
0c
#382
b11111101111111111111110100011001 C
1c
#383
0c
#387
1"
b11111111 3
b11111101000000101111110000010110 C
1c
#388
0"
0c
#391
b11111111111111110000001100010101 C
1c
#392
0c
#396
b111111111111111000010111 C
1c
#397
0c
#400
b10111111111111101100010101 C
1c
#401
0c
#405
b11111110000000001111110100010101 C
1c
#406
0c
#410
b11111101000000000000001100010111 C
1c
#411
0c
#414
b11111110000000000000000000011000 C
1c
#415
0c
#419
b11111110111111101111111000011000 C
1c
#420
0c
#423
b11111100000000001111111000010010 C
1c
#424
0c
#428
b11111111000010110 C
1c
#429
0c
#432
b11111111000000011111111000010100 C
1c
#433
0c
#437
b1000000001111111100010110 C
1c
#438
0c
#442
b111111111000011000 C
1c
#443
0c
#446
b11111110000000100000000100010111 C
1c
#447
0c
#451
b11000000101111111000011001 C
1c
#452
0c
#455
b11111111000000010000001000010111 C
1c
#456
0c
#460
b11111111000000011111111000010111 C
1c
#461
0c
#464
b11111111111111110000000000010111 C
1c
#465
0c
#469
b111111100000000000010101 C
1c
#470
0c
#474
b11111111111111111111110100010100 C
1c
#475
0c
#478
1"
b1111111111111000 #
b1111111111111111 3
b111111111111111000011010 C
1c
#479
0"
0c
#483
b11000000101111110100011000 C
1c
#484
0c
#487
b11000000101111100100010110 C
1c
#488
0c
#492
b111111111111111000010110 C
1c
#493
0c
#496
b111111111111110000010100 C
1c
#497
0c
#501
b111111010000000000010111 C
1c
#502
0c
#506
b111111101111101000010110 C
1c
#507
0c
#510
b10111111111111110100010111 C
1c
#511
0c
#512
1d
#515
b111111111111110100011001 C
1c
#516
0c
#519
b11111111000000100000000100010111 C
1c
#520
0c
#524
b1111111100000000100010110 C
1c
#525
0c
#529
b11111101000000011111111100010101 C
1c
#530
0c
#533
b11111110111111111111110000010111 C
1c
#534
0c
#538
b11111110000000001111111000011001 C
1c
#539
0c
#542
b11111100111111111111101100010011 C
1c
#543
0c
#547
b11111100111111101111110000010101 C
1c
#548
0c
#551
b1111100100010101 C
1c
#552
0c
#556
b11111110111111000000000000010111 C
1c
#557
0c
#561
b111111111111101100010100 C
1c
#562
0c
#565
b1000000001111111100011000 C
1c
#566
0c
#570
1"
b1111111011110010 #
b10000000001111101100010111 C
1c
#571
0"
0c
#574
b11111111000000111111110100010101 C
1c
#575
0c
#579
b111111111111110100010111 C
1c
#580
0c
#583
b100111111001111101100011000 C
1c
#584
0c
#588
b11111111000000001111100100010011 C
1c
#589
0c
#593
b1000000001111111100010111 C
1c
#594
0c
#597
b1000000001111110000010110 C
1c
#598
0c
#602
b111111111111101100011000 C
1c
#603
0c
#606
b1111101000010110 C
1c
#607
0c
#611
b11111110111111111111111100011000 C
1c
#612
0c
#616
b111111111111111100010101 C
1c
#617
0c
#620
b11111110111111010000000000011000 C
1c
#621
0c
#625
b11111111111111101111111100011010 C
1c
#626
0c
#629
b11111111000000011111101111110111 C
1c
#630
0c
#634
b11111111110000000011100110 C
1c
#635
0c
#638
b1000000100000000111101001 C
1c
#639
0c
#643
b11111110111111111111111011101001 C
1c
#644
0c
#648
b1000000000000000111101000 C
1c
#649
0c
#652
b11111111000000101111111011101001 C
1c
#653
0c
#657
b10000010011101001 C
1c
#658
0c
#661
1"
b1111111000000110 #
b11111111 3
b11111111111111000000000011100101 C
1c
#662
0"
0c
#666
b11111111000000101111111011101010 C
1c
#667
0c
#670
b1111111111100101 C
1c
#671
0c
#675
b111100111 C
1c
#676
0c
#680
b10000000111100110 C
1c
#681
0c
#684
b1111111110000000111100111 C
1c
#685
0c
#689
b11111101000000100000000111101010 C
1c
#690
0c
#693
b100111111110000001011100111 C
1c
#694
0c
#698
b11111111111111110000000111100111 C
1c
#699
0c
#702
b11111101111111100000000011101001 C
1c
#703
0c
#707
b1111111100000000111100111 C
1c
#708
0c
#712
b11111111111111000000001011100101 C
1c
#713
0c
#716
b1000000010000000111101000 C
1c
#717
0c
#721
b11111111111111110000001011101001 C
1c
#722
0c
#725
b11111111111111010000001111100110 C
1c
#726
0c
#730
b11111110011101010 C
1c
#731
0c
#735
b10111111100000001011101101 C
1c
#736
0c
#739
b11111111000000110000000111101001 C
1c
#740
0c
#744
b11111101111111100000000011100101 C
1c
#745
0c
#748
b11111110000000001111111111101000 C
1c
#749
0c
#753
1"
b1111111100001011 #
b1111111111111111 3
b11111100000000101111111011101000 C
1c
#754
0"
0c
#757
b11000000000000001111101010 C
1c
#758
0c
#762
b10111111101111111011100110 C
1c
#763
0c
#767
b1000000001111111011101001 C
1c
#768
0c
#771
b100000000011100111 C
1c
#772
0c
#776
b10000000101111111011101000 C
1c
#777
0c
#780
b10000000011111110011101001 C
1c
#781
0c
#785
b11111110111111111111111111100111 C
1c
#786
0c
#789
b11111111111111110011100111 C
1c
#790
0c
#794
b11100111 C
1c
#795
0c
#799
b111111101111111111101001 C
1c
#800
0c
#803
b11111111000000010000000011101000 C
1c
#804
0c
#808
b11111100000000101111111011100011 C
1c
#809
0c
#812
b11111111000000100000001100000001 C
1c
#813
0c
#817
b111111101111111000011101 C
1c
#818
0c
#822
b11111111111111111111111000011010 C
1c
#823
0c
#826
b100111111011111110100010111 C
1c
#827
0c
#831
b11111110111111110000000000011011 C
1c
#832
0c
#835
b111111011111111000010111 C
1c
#836
0c
#840
b111111011111111000010100 C
1c
#841
0c
#844
1"
b1111111100000000 3
b11111101111111011111111000010111 C
1c
#845
0"
0c
#849
b1000000011111111000011000 C
1c
#850
0c
#854
b11111101100010111 C
1c
#855
0c
#858
b11111101000000010000000000010111 C
1c
#859
0c
#863
b11111111000000000000000000010110 C
1c
#864
0c
#867
b1111110000010111 C
1c
#868
0c
#872
b10111111110000001100011000 C
1c
#873
0c
#876
b11111101111111110000000000011001 C
1c
#877
0c
#881
b11111101111111101111111000010110 C
1c
#882
0c
#886
b11111110000000000000000100010110 C
1c
#887
0c
#890
b111111101111111000010110 C
1c
#891
0c
#895
b11111110000000000000000100010111 C
1c
#896
0c
#899
b11111111111111101111111000010111 C
1c
#900
0c
#904
b11111111111111010000001100011000 C
1c
#905
0c
#908
b11111111111111110000000100010100 C
1c
#909
0c
#913
b11111110111111110000000000011010 C
1c
#914
0c
#918
b11111111000000100000000100010110 C
1c
#919
0c
#922
b1000000101111111000010110 C
1c
#923
0c
#927
b11111111111111100000000100011001 C
1c
#928
0c
#931
b11111111100011010 C
1c
#932
0c
#936
1"
b1111111000001011 #
b1111111111111111 3
b11111011111111011111111000010111 C
1c
#937
0"
0c
#941
b100010111 C
1c
#942
0c
#945
b11111111111111110100010110 C
1c
#946
0c
#950
b11111111000000001111110100010110 C
1c
#951
0c
#954
b1111110000011001 C
1c
#955
0c
#959
b11111110000000100000000000010111 C
1c
#960
0c
#963
b1111111100010101 C
1c
#964
0c
#968
b111111101111111100011000 C
1c
#969
0c
#973
b11111011111111100000000000010110 C
1c
#974
0c
#977
b11111111111111111111111000011001 C
1c
#978
0c
#982
b11111101000000000000001000010110 C
1c
#983
0c
#986
b1111111110000001000010100 C
1c
#987
0c
#991
b111111011111110100011001 C
1c
#992
0c
#995
b11111101000001001111101011111100 C
1c
#996
0c
#1000
b1000000001111101111100100 C
1c
#1001
0c
#1005
b111111010000000111101010 C
1c
#1006
0c
#1009
b111111101111111011100111 C
1c
#1010
0c
#1014
b11111100000000010000000011101001 C
1c
#1015
0c
#1018
b11111101000000001111111011101010 C
1c
#1019
0c
#1023
b1000000101111110011101100 C
1c
