MATLAB/.Xil/Vivado-14782-badger/hw_ila_data_2/zip_work/waveform.vcd
$date
        2022-Feb-11 19:21:48
$end
$version
        Vivado v2019.1 (64-bit)
$end
$timescale
        1ps
$end
$scope module dut $end
$var reg 4 " i_system_wrapper/system_i/acquisition_axis_0_st_curr [3:0] $end
$var reg 32 & i_system_wrapper/system_i/acquisition_axis_0_xfft_data_in_tdata [31:0] $end
$var reg 1 F i_system_wrapper/system_i/acquisition_axis_0_xfft_data_in_tvalid $end
$var reg 17 G i_system_wrapper/system_i/acquisition_axis_0_xfft_cntr [16:0] $end
$var reg 16 X i_system_wrapper/system_i/acquisition_axis_0_raw_data [15:0] $end
$var reg 1 h i_system_wrapper/system_i/acquisition_axis_0_raw_data_valid $end
$var reg 1 i i_system_wrapper/system_i/acquisition_axis_0_sincos_valid $end
$var reg 16 j i_system_wrapper/system_i/acquisition_axis_0_sincos_data [15:0] $end
$var reg 32 z i_system_wrapper/system_i/acquisition_axis_0_phase_count [31:0] $end
$var reg 1 <" i_system_wrapper/system_i/acquisition_axis_0_carr_mix $end
$var reg 16 =" i_system_wrapper/system_i/acquisition_axis_0_config_xfft_data [15:0] $end
$var reg 1 M" i_system_wrapper/system_i/acquisition_axis_0_config_xfft_valid $end
$var reg 1 N" i_system_wrapper/system_i/acquisition_axis_0_st_xfft_next $end
$var reg 1 O" i_system_wrapper/system_i/acquisition_axis_0_st_xfft_curr $end
$var reg 3 P" i_system_wrapper/system_i/acquisition_axis_0_st_fft_next [2:0] $end
$var reg 3 S" i_system_wrapper/system_i/acquisition_axis_0_st_fft_curr [2:0] $end
$var reg 1 V" i_system_wrapper/system_i/acquisition_axis_0_switch_position $end
$var reg 1 W" i_system_wrapper/system_i/acquisition_axis_0_xfft_data_out_tvalid $end
$var reg 32 X" i_system_wrapper/system_i/acquisition_axis_0_xfft_data_out_tdata [31:0] $end
$var reg 1 x" i_system_wrapper/system_i/acquisition_axis_0_xfft_data_out_tlast $end
$var reg 1 y" i_system_wrapper/system_i/acquisition_axis_0_event_frame_started $end
$var reg 1 z" i_system_wrapper/system_i/acq_stop_slice_Dout $end
$var reg 1 {" i_system_wrapper/system_i/acquisition_axis_0_xfft_tvalid1 $end
$var reg 1 |" i_system_wrapper/system_i/acquisition_axis_0_o_acq_done $end
$var reg 1 }" i_system_wrapper/system_i/acquisition_axis_0_second_peak_valid $end
$var reg 1 ~" i_system_wrapper/system_i/acquisition_axis_0_second_peak_last $end
$var reg 16 !# i_system_wrapper/system_i/acquisition_axis_0_max_peak [15:0] $end
$var reg 1 1# i_system_wrapper/system_i/acquisition_axis_0_max_index_done $end
$var reg 32 2# i_system_wrapper/system_i/acquisition_axis_0_second_peak_data [31:0] $end
$var reg 32 R# i_system_wrapper/system_i/acquisition_axis_0_second_peak [31:0] $end
$var reg 16 r# i_system_wrapper/system_i/acquisition_axis_0_max_index [15:0] $end
$var reg 32 $$ i_system_wrapper/system_i/acq_exclude_limit_slice_Dout [31:0] $end
$var reg 16 D$ i_system_wrapper/system_i/acquisition_axis_0_xfft_index [15:0] $end
$var reg 1 T$ _TRIGGER $end
$var reg 1 U$ _WINDOW $end
$var reg 1 V$ _GAP $end
$upscope $end
$enddefinitions $end
#0
$dumpvars
b100 "
b0 &
0F
b0 G
b0 X
1h
0i
b101000000 j
b0 z
0<"
b100001100 ="
1M"
0N"
0O"
b1 P"
b1 S"
1V"
0W"
b11111111100111000000000010010100 X"
0x"
0y"
0z"
0{"
0|"
0}"
0~"
b0 !#
01#
b11111111100111000000000010010100 2#
b0 R#
b0 r#
b100 $$
b111111110000 D$
0T$
1U$
0V$
$end
#4095
1W"
b11101010000010010000101011111001 X"
b11101010000010010000101011111001 2#
b0 D$
#4096
b11101100101100010000110100111000 X"
b11101100101100010000110100111000 2#
b1 D$
#4097
b11101110001110010000101111001110 X"
b11101110001110010000101111001110 2#
b10 D$
#4098
b11101110010110110000100111010000 X"
b11101110010110110000100111010000 2#
b11 D$
#4099
b11101011011010110000101001101111 X"
b11101011011010110000101001101111 2#
b100 D$
#4100
b11101010010101010000110111011000 X"
b11101010010101010000110111011000 2#
b101 D$
#4101
b11101100100110000000110100101010 X"
b11101100100110000000110100101010 2#
b110 D$
#4102
b11101100100010000000101111101111 X"
b11101100100010000000101111101111 2#
b111 D$
#4103
b11101101110010110000110111001010 X"
b11101101110010110000110111001010 2#
b1000 D$
#4104
b11101111010111010000111001100111 X"
b11101111010111010000111001100111 2#
b1001 D$
#4105
b11110000000001000000110100110101 X"
b11110000000001000000110100110101 2#
b1010 D$
#4106
b11101101010100110000110001110111 X"
b11101101010100110000110001110111 2#
b1011 D$
#4107
b11101011010110100001000010001101 X"
b11101011010110100001000010001101 2#
b1100 D$
#4108
b11101001101111110001000101011111 X"
b11101001101111110001000101011111 2#
b1101 D$
#4109
b11101001101001100000110110101010 X"
b11101001101001100000110110101010 2#
b1110 D$
#4110
b11101100110000010000110000010111 X"
b11101100110000010000110000010111 2#
b1111 D$
#4111
b11101101101100110000110110111100 X"
b11101101101100110000110110111100 2#
b10000 D$
#4112
b11101110001010110001000000000001 X"
b11101110001010110001000000000001 2#
b10001 D$
#4113
b11101101001111110000111111110011 X"
b11101101001111110000111111110011 2#
b10010 D$
#4114
b11101101100000100000111001100001 X"
b11101101100000100000111001100001 2#
b10011 D$
#4115
b11110000000100010000101011101000 X"
b11110000000100010000101011101000 2#
b10100 D$
#4116
b11101111100011100000110100011111 X"
b11101111100011100000110100011111 2#
b10101 D$
#4117
b11110101000000000000110011110010 X"
b11110101000000000000110011110010 2#
b10110 D$
#4118
b11110110011100010000101001000111 X"
b11110110011100010000101001000111 2#
b10111 D$
#4119
b11101111110100000000111011111001 X"
b11101111110100000000111011111001 2#
b11000 D$
#4120
b11110010110010000000111110111011 X"
b11110010110010000000111110111011 2#
b11001 D$
#4121
b11110101011101110001000001011110 X"
b11110101011101110001000001011110 2#
b11010 D$
#4122
b11110010101001000001000010011001 X"
b11110010101001000001000010011001 2#
b11011 D$
#4123
b11110001011001010000110101011010 X"
b11110001011001010000110101011010 2#
b11100 D$
#4124
b11110010101001100001000010111000 X"
b11110010101001100001000010111000 2#
b11101 D$
#4125
b11110100000010110001001001110100 X"
b11110100000010110001001001110100 2#
b11110 D$
#4126
b11110101000010000001000110011000 X"
b11110101000010000001000110011000 2#
b11111 D$
#4127
b11110110001001100001000010001100 X"
b11110110001001100001000010001100 2#
b100000 D$
#4128
b11110011111000000000111101000001 X"
b11110011111000000000111101000001 2#
b100001 D$
#4129
b11110010111100000001000000000100 X"
b11110010111100000001000000000100 2#
b100010 D$
#4130
b11110100001110100001000000010110 X"
b11110100001110100001000000010110 2#
b100011 D$
#4131
b11110110000101000001000100111010 X"
b11110110000101000001000100111010 2#
b100100 D$
#4132
b11110110111000110001000100001110 X"
b11110110111000110001000100001110 2#
b100101 D$
#4133
b11110110100100010001000010010111 X"
b11110110100100010001000010010111 2#
b100110 D$
#4134
b11110100100100010001001000000000 X"
b11110100100100010001001000000000 2#
b100111 D$
#4135
b11110100100111110001000010110001 X"
b11110100100111110001000010110001 2#
b101000 D$
#4136
b11110111010011110001000000111101 X"
b11110111010011110001000000111101 2#
b101001 D$
#4137
b11110111010000010001010001001111 X"
b11110111010000010001010001001111 2#
b101010 D$
#4138
b11110111001101100001001110100000 X"
b11110111001101100001001110100000 2#
b101011 D$
#4139
b11110101111010100001001101010011 X"
b11110101111010100001001101010011 2#
b101100 D$
#4140
b11110110000111100001001001110111 X"
b11110110000111100001001001110111 2#
b101101 D$
#4141
b11110011100110100001000100101000 X"
b11110011100110100001000100101000 2#
b101110 D$
#4142
b11110001001111110001001101111110 X"
b11110001001111110001001101111110 2#
b101111 D$
#4143
b11110100110001010001001011101111 X"
b11110100110001010001001011101111 2#
b110000 D$
#4144
b11110110101011100001001001111001 X"
b11110110101011100001001001111001 2#
b110001 D$
#4145
b11110100110111010000111000101001 X"
b11110100110111010000111000101001 2#
b110010 D$
#4146
b11110101011011000000111010110010 X"
b11110101011011000000111010110010 2#
b110011 D$
#4147
b11111000010001000001001111011011 X"
b11111000010001000001001111011011 2#
b110100 D$
#4148
b11110110110101110001001011010111 X"
b11110110110101110001001011010111 2#
b110101 D$
#4149
b11111001100110100001010010010001 X"
b11111001100110100001010010010001 2#
b110110 D$
#4150
b11111001111001110001011011111110 X"
b11111001111001110001011011111110 2#
b110111 D$
#4151
b11110111011111010001010011010001 X"
b11110111011111010001010011010001 2#
b111000 D$
#4152
b11111010111001000001001101011011 X"
b11111010111001000001001101011011 2#
b111001 D$
#4153
b11111110010010000001001011011100 X"
b11111110010010000001001011011100 2#
b111010 D$
#4154
b11111101001110010001001101011000 X"
b11111101001110010001001101011000 2#
b111011 D$
#4155
b11111100101110010001001000101001 X"
b11111100101110010001001000101001 2#
b111100 D$
#4156
b1000101000001001000100010 X"
b1000101000001001000100010 2#
b111101 D$
#4157
b101000100110001010111010011 X"
b101000100110001010111010011 2#
b111110 D$
#4158
b100111010110001010101111111 X"
b100111010110001010101111111 2#
b111111 D$
#4159
b11111110100111010001000001001110 X"
b11111110100111010001000001001110 2#
b1000000 D$
#4160
b11111100101101000001000000001111 X"
b11111100101101000001000000001111 2#
b1000001 D$
#4161
b1001001000001001110101110 X"
b1001001000001001110101110 2#
b1000010 D$
#4162
b10111000010001001011000001 X"
b10111000010001001011000001 2#
b1000011 D$
#4163
b11001000001001010000010 X"
b11001000001001010000010 2#
b1000100 D$
#4164
b110001010001001110100001 X"
b110001010001001110100001 2#
b1000101 D$
#4165
b11111110000100000001001101100011 X"
b11111110000100000001001101100011 2#
b1000110 D$
#4166
b11111111001111100001001101111001 X"
b11111111001111100001001101111001 2#
b1000111 D$
#4167
b11101101110001010100110011 X"
b11101101110001010100110011 2#
b1001000 D$
#4168
b11111111011001000001010110011101 X"
b11111111011001000001010110011101 2#
b1001001 D$
#4169
b11111100111110000001010010001100 X"
b11111100111110000001010010001100 2#
b1001010 D$
#4170
b11111111010000010001001110011010 X"
b11111111010000010001001110011010 2#
b1001011 D$
#4171
b100001010001011011001000 X"
b100001010001011011001000 2#
b1001100 D$
#4172
b10111101010001100100000011 X"
b10111101010001100100000011 2#
b1001101 D$
#4173
b100111000100001001101100010 X"
b100111000100001001101100010 2#
b1001110 D$
#4174
b11001100100001000100011101 X"
b11001100100001000100011101 2#
b1001111 D$
#4175
b11000101010000111111001111 X"
b11000101010000111111001111 2#
b1010000 D$
#4176
b11100000000001000000001010 X"
b11100000000001000000001010 2#
b1010001 D$
#4177
b10011001110001000011100101 X"
b10011001110001000011100101 2#
b1010010 D$
#4178
b10000000000000111110010000 X"
b10000000000000111110010000 2#
b1010011 D$
#4179
b10111100000001001111101101 X"
b10111100000001001111101101 2#
b1010100 D$
#4180
b11100101010001011100010001 X"
b11100101010001011100010001 2#
b1010101 D$
#4181
b100000110100001101000001101 X"
b100000110100001101000001101 2#
b1010110 D$
#4182
b111101000110001100111010101 X"
b111101000110001100111010101 2#
b1010111 D$
#4183
b1001111100110001010001001111 X"
b1001111100110001010001001111 2#
b1011000 D$
#4184
b111010000000001001000101010 X"
b111010000000001001000101010 2#
b1011001 D$
#4185
b101000110000001000011101011 X"
b101000110000001000011101011 2#
b1011010 D$
#4186
b111100101110001001101010010 X"
b111100101110001001101010010 2#
b1011011 D$
#4187
b1001001111000001001111101000 X"
b1001001111000001001111101000 2#
b1011100 D$
#4188
b1000000110100000111001110001 X"
b1000000110100000111001110001 2#
b1011101 D$
#4189
b1000011000100000110111011110 X"
b1000011000100000110111011110 2#
b1011110 D$
#4190
b111101100010001000000010001 X"
b111101100010001000000010001 2#
b1011111 D$
#4191
b110011011010000111011001000 X"
b110011011010000111011001000 2#
b1100000 D$
#4192
b101110111110001000001001001 X"
b101110111110001000001001001 2#
b1100001 D$
#4193
b1000110000010001000111000100 X"
b1000110000010001000111000100 2#
b1100010 D$
#4194
b1011110001110000111100110000 X"
b1011110001110000111100110000 2#
b1100011 D$
#4195
b1100100100100001000110010001 X"
b1100100100100001000110010001 2#
b1100100 D$
#4196
b1101111001000001000110011111 X"
b1101111001000001000110011111 2#
b1100101 D$
#4197
b1010111011100001000101000011 X"
b1010111011100001000101000011 2#
b1100110 D$
#4198
b1001011010000001010010000100 X"
b1001011010000001010010000100 2#
b1100111 D$
#4199
b1000101001110001001101110010 X"
b1000101001110001001101110010 2#
b1101000 D$
#4200
b110011100000001001110000111 X"
b110011100000001001110000111 2#
b1101001 D$
#4201
b1010011000010001000100011101 X"
b1010011000010001000100011101 2#
b1101010 D$
#4202
b1111011111010000111000001001 X"
b1111011111010000111000001001 2#
b1101011 D$
#4203
b111110111010000111101111011 X"
b111110111010000111101111011 2#
b1101100 D$
#4204
b100101111110000111110111001 X"
b100101111110000111110111001 2#
b1101101 D$
#4205
b1011001100000000111100110101 X"
b1011001100000000111100110101 2#
b1101110 D$
#4206
b1010111110010001000100010100 X"
b1010111110010001000100010100 2#
b1101111 D$
#4207
b1011011010000001000100111000 X"
b1011011010000001000100111000 2#
b1110000 D$
#4208
b1101010001110000111101001010 X"
b1101010001110000111101001010 2#
b1110001 D$
#4209
b1100110001100000101110100100 X"
b1100110001100000101110100100 2#
b1110010 D$
#4210
b1100100101100000110000000000 X"
b1100100101100000110000000000 2#
b1110011 D$
#4211
b1101111010100001000000010001 X"
b1101111010100001000000010001 2#
b1110100 D$
#4212
b1101111111110000111000010000 X"
b1101111111110000111000010000 2#
b1110101 D$
#4213
b1101001000000000110101010110 X"
b1101001000000000110101010110 2#
b1110110 D$
#4214
b1111011011010000110011110000 X"
b1111011011010000110011110000 2#
b1110111 D$
#4215
b1111001110000000110101100111 X"
b1111001110000000110101100111 2#
b1111000 D$
#4216
b1110010010100001000011110111 X"
b1110010010100001000011110111 2#
b1111001 D$
#4217
b1110001001110000111111000001 X"
b1110001001110000111111000001 2#
b1111010 D$
#4218
b1011110110000000110101000010 X"
b1011110110000000110101000010 2#
b1111011 D$
#4219
b1011110001010000111110111001 X"
b1011110001010000111110111001 2#
b1111100 D$
#4220
b10000011100010001000010110111 X"
b10000011100010001000010110111 2#
b1111101 D$
#4221
b10011110101100000111110001001 X"
b10011110101100000111110001001 2#
b1111110 D$
#4222
b10001111100010000111001101011 X"
b10001111100010000111001101011 2#
b1111111 D$
#4223
b1111010011100000110011000010 X"
b1111010011100000110011000010 2#
b10000000 D$
#4224
b1111001110010000100110101001 X"
b1111001110010000100110101001 2#
b10000001 D$
#4225
b10000100110000000011010101110 X"
b10000100110000000011010101110 2#
b10000010 D$
#4226
b1110100000000000100010100000 X"
b1110100000000000100010100000 2#
b10000011 D$
#4227
b10010101100110000101000001111 X"
b10010101100110000101000001111 2#
b10000100 D$
#4228
b11000000110010000100000011100 X"
b11000000110010000100000011100 2#
b10000101 D$
#4229
b10110100000000000100110010100 X"
b10110100000000000100110010100 2#
b10000110 D$
#4230
b10101101001100000100101110011 X"
b10101101001100000100101110011 2#
b10000111 D$
#4231
b10001010011100000101010100111 X"
b10001010011100000101010100111 2#
b10001000 D$
#4232
b10000100110110000110110000111 X"
b10000100110110000110110000111 2#
b10001001 D$
#4233
b10001101101100000111001001010 X"
b10001101101100000111001001010 2#
b10001010 D$
#4234
b1111111011010000101111001110 X"
b1111111011010000101111001110 2#
b10001011 D$
#4235
b10001011100100000011011110101 X"
b10001011100100000011011110101 2#
b10001100 D$
#4236
b10010000110100000101011010000 X"
b10010000110100000101011010000 2#
b10001101 D$
#4237
b1111111000000000100011101011 X"
b1111111000000000100011101011 2#
b10001110 D$
#4238
b1111101111110000010101011110 X"
b1111101111110000010101011110 2#
b10001111 D$
#4239
b1111010111100000010010000110 X"
b1111010111100000010010000110 2#
b10010000 D$
#4240
b10000011000000000000100111100 X"
b10000011000000000000100111100 2#
b10010001 D$
#4241
b10010100101000000001100010010 X"
b10010100101000000001100010010 2#
b10010010 D$
#4242
b10001111110110000011110100100 X"
b10001111110110000011110100100 2#
b10010011 D$
#4243
b10001000100110000100011100100 X"
b10001000100110000100011100100 2#
b10010100 D$
#4244
b10000110101110000010110010001 X"
b10000110101110000010110010001 2#
b10010101 D$
#4245
b10000111010110000010001000111 X"
b10000111010110000010001000111 2#
b10010110 D$
#4246
b10001001101010000011100110001 X"
b10001001101010000011100110001 2#
b10010111 D$
#4247
b10010100010010000100110100100 X"
b10010100010010000100110100100 2#
b10011000 D$
#4248
b10000111001100000100100111011 X"
b10000111001100000100100111011 2#
b10011001 D$
#4249
b10011101011000000011100110010 X"
b10011101011000000011100110010 2#
b10011010 D$
#4250
b11001111011110000100011010001 X"
b11001111011110000100011010001 2#
b10011011 D$
#4251
b11011001100100000101100111000 X"
b11011001100100000101100111000 2#
b10011100 D$
#4252
b11010100010010000011100101001 X"
b11010100010010000011100101001 2#
b10011101 D$
#4253
b10110111001110000010000001110 X"
b10110111001110000010000001110 2#
b10011110 D$
#4254
b10100001001110000001011111011 X"
b10100001001110000001011111011 2#
b10011111 D$
#4255
b10100010100010000000111101010 X"
b10100010100010000000111101010 2#
b10100000 D$
#4256
b10011011010110000010101000001 X"
b10011011010110000010101000001 2#
b10100001 D$
#4257
b10010010110100000001111000010 X"
b10010010110100000001111000010 2#
b10100010 D$
#4258
b10011000001110000001110100001 X"
b10011000001110000001110100001 2#
b10100011 D$
#4259
b10100110110010000010001111100 X"
b10100110110010000010001111100 2#
b10100100 D$
#4260
b10110111001000000000011001000 X"
b10110111001000000000011001000 2#
b10100101 D$
#4261
b10110100001110000010101000110 X"
b10110100001110000010101000110 2#
b10100110 D$
#4262
b10100100001110000011001011111 X"
b10100100001110000011001011111 2#
b10100111 D$
#4263
b10101111101010000001001100100 X"
b10101111101010000001001100100 2#
b10101000 D$
#4264
b10111001111010000001100110101 X"
b10111001111010000001100110101 2#
b10101001 D$
#4265
b10110010010010000000000111100 X"
b10110010010010000000000111100 2#
b10101010 D$
#4266
b10100110110001111111111111000 X"
b10100110110001111111111111000 2#
b10101011 D$
#4267
b10111101100010000000101001111 X"
b10111101100010000000101001111 2#
b10101100 D$
#4268
b11001101101011111110111101110 X"
b11001101101011111110111101110 2#
b10101101 D$
#4269
b10101100101111111111011111010 X"
b10101100101111111111011111010 2#
b10101110 D$
#4270
b10101101011111111101111100011 X"
b10101101011111111101111100011 2#
b10101111 D$
#4271
b10010000011101111101101110100 X"
b10010000011101111101101110100 2#
b10110000 D$
#4272
b1110000011000000000001010110 X"
b1110000011000000000001010110 2#
b10110001 D$
#4273
b10001101110110000000011101001 X"
b10001101110110000000011101001 2#
b10110010 D$
#4274
b10010010001011111111100100111 X"
b10010010001011111111100100111 2#
b10110011 D$
#4275
b10101100111101111111011001101 X"
b10101100111101111111011001101 2#
b10110100 D$
#4276
b11001011100000000000100111011 X"
b11001011100000000000100111011 2#
b10110101 D$
#4277
b10101110000001111111111001000 X"
b10101110000001111111111001000 2#
b10110110 D$
#4278
b10011010110101111111101001000 X"
b10011010110101111111101001000 2#
b10110111 D$
#4279
b11001000010010000001001110010 X"
b11001000010010000001001110010 2#
b10111000 D$
#4280
b11011000100000000001001000101 X"
b11011000100000000001001000101 2#
b10111001 D$
#4281
b10111001010001111110111000010 X"
b10111001010001111110111000010 2#
b10111010 D$
#4282
b11010000000101111101110000111 X"
b11010000000101111101110000111 2#
b10111011 D$
#4283
b11000101001001111101101010000 X"
b11000101001001111101101010000 2#
b10111100 D$
#4284
b10100101000011111101101100011 X"
b10100101000011111101101100011 2#
b10111101 D$
#4285
b10101111111011111101010100001 X"
b10101111111011111101010100001 2#
b10111110 D$
#4286
b10101001001111111100100011010 X"
b10101001001111111100100011010 2#
b10111111 D$
#4287
b10001101111101111100111001110 X"
b10001101111101111100111001110 2#
b11000000 D$
#4288
b10011001001011111110001011111 X"
b10011001001011111110001011111 2#
b11000001 D$
#4289
b10111010100011111110010000101 X"
b10111010100011111110010000101 2#
b11000010 D$
#4290
b10101100000111111101000010000 X"
b10101100000111111101000010000 2#
b11000011 D$
#4291
b10100100011001111100001110000 X"
b10100100011001111100001110000 2#
b11000100 D$
#4292
b10110101100101111100000100111 X"
b10110101100101111100000100111 2#
b11000101 D$
#4293
b10111001111011111101010011111 X"
b10111001111011111101010011111 2#
b11000110 D$
#4294
b10111010001001111110000011100 X"
b10111010001001111110000011100 2#
b11000111 D$
#4295
b10111000000101111100111001111 X"
b10111000000101111100111001111 2#
b11001000 D$
#4296
b10100010010111111101010101010 X"
b10100010010111111101010101010 2#
b11001001 D$
#4297
b10010100011011111101001101110 X"
b10010100011011111101001101110 2#
b11001010 D$
#4298
b10011111110001111101011001000 X"
b10011111110001111101011001000 2#
b11001011 D$
#4299
b10010110011011111100101010000 X"
b10010110011011111100101010000 2#
b11001100 D$
#4300
b10101000111001111010010110001 X"
b10101000111001111010010110001 2#
b11001101 D$
#4301
b10101011100001111011101100110 X"
b10101011100001111011101100110 2#
b11001110 D$
#4302
b10010110010101111011000111001 X"
b10010110010101111011000111001 2#
b11001111 D$
#4303
b10011000000111111010100101100 X"
b10011000000111111010100101100 2#
b11010000 D$
#4304
b10010100011101111100011011001 X"
b10010100011101111100011011001 2#
b11010001 D$
#4305
b10010101001011111100100011000 X"
b10010101001011111100100011000 2#
b11010010 D$
#4306
b10010000110111111011100111111 X"
b10010000110111111011100111111 2#
b11010011 D$
#4307
b10000001010111111010000110010 X"
b10000001010111111010000110010 2#
b11010100 D$
#4308
b1111000000011111000100010001 X"
b1111000000011111000100010001 2#
b11010101 D$
#4309
b10000100100011111001100100110 X"
b10000100100011111001100100110 2#
b11010110 D$
#4310
b10101100001101111010110110110 X"
b10101100001101111010110110110 2#
b11010111 D$
#4311
b10100101010001111010100110111 X"
b10100101010001111010100110111 2#
b11011000 D$
#4312
b10010000100111111010001001001 X"
b10010000100111111010001001001 2#
b11011001 D$
#4313
b10001101110001111001010111001 X"
b10001101110001111001010111001 2#
b11011010 D$
#4314
b1111010001011111010100000001 X"
b1111010001011111010100000001 2#
b11011011 D$
#4315
b10001011010111111010100010100 X"
b10001011010111111010100010100 2#
b11011100 D$
#4316
b10010001011001111001010111110 X"
b10010001011001111001010111110 2#
b11011101 D$
#4317
b1101110000111110111001010110 X"
b1101110000111110111001010110 2#
b11011110 D$
#4318
b10001001000111110111011111110 X"
b10001001000111110111011111110 2#
b11011111 D$
#4319
b10100011100011111000101111010 X"
b10100011100011111000101111010 2#
b11100000 D$
#4320
b1111001111011111000110000100 X"
b1111001111011111000110000100 2#
b11100001 D$
#4321
b10001010010111111001001011010 X"
b10001010010111111001001011010 2#
b11100010 D$
#4322
b10101110011111111000100001111 X"
b10101110011111111000100001111 2#
b11100011 D$
#4323
b10010000110011110111101010000 X"
b10010000110011110111101010000 2#
b11100100 D$
#4324
b1111100111001110111011101001 X"
b1111100111001110111011101001 2#
b11100101 D$
#4325
b1011001010011110111010010111 X"
b1011001010011110111010010111 2#
b11100110 D$
#4326
b101111110011111001011010011 X"
b101111110011111001011010011 2#
b11100111 D$
#4327
b101110010001111000111000110 X"
b101110010001111000111000110 2#
b11101000 D$
#4328
b1010010000101110111111010100 X"
b1010010000101110111111010100 2#
b11101001 D$
#4329
b1011010100111111001000000001 X"
b1011010100111111001000000001 2#
b11101010 D$
#4330
b1001101001011110110110011001 X"
b1001101001011110110110011001 2#
b11101011 D$
#4331
b1001100101001110110000000101 X"
b1001100101001110110000000101 2#
b11101100 D$
#4332
b1000110010101111000000001111 X"
b1000110010101111000000001111 2#
b11101101 D$
#4333
b111111111001110110111100110 X"
b111111111001110110111100110 2#
b11101110 D$
#4334
b110101111011110101000100111 X"
b110101111011110101000100111 2#
b11101111 D$
#4335
b1000110011001110111111000011 X"
b1000110011001110111111000011 2#
b11110000 D$
#4336
b1010000001001111001110111000 X"
b1010000001001111001110111000 2#
b11110001 D$
#4337
b110111000001111000011001100 X"
b110111000001111000011001100 2#
b11110010 D$
#4338
b11000101011110110111010101 X"
b11000101011110110111010101 2#
b11110011 D$
#4339
b1001001000111110110111101110 X"
b1001001000111110110111101110 2#
b11110100 D$
#4340
b1101000100111110111001010001 X"
b1101000100111110111001010001 2#
b11110101 D$
#4341
b1011001011011111000000010011 X"
b1011001011011111000000010011 2#
b11110110 D$
#4342
b1110110111001111000101001100 X"
b1110110111001111000101001100 2#
b11110111 D$
#4343
b1100001011001110110110101011 X"
b1100001011001110110110101011 2#
b11111000 D$
#4344
b1100010011011110110000001111 X"
b1100010011011110110000001111 2#
b11111001 D$
#4345
b1010010100111110110001001001 X"
b1010010100111110110001001001 2#
b11111010 D$
#4346
b101010001111110111111011001 X"
b101010001111110111111011001 2#
b11111011 D$
#4347
b111011111111110110011101101 X"
b111011111111110110011101101 2#
b11111100 D$
#4348
b1010100000101110100111010111 X"
b1010100000101110100111010111 2#
b11111101 D$
#4349
b1010011000011110110000110100 X"
b1010011000011110110000110100 2#
b11111110 D$
#4350
b1001110110001110110101101101 X"
b1001110110001110110101101101 2#
b11111111 D$
#4351
b1001001110011110110101110010 X"
b1001001110011110110101110010 2#
b100000000 D$
#4352
b110011010011110100001100111 X"
b110011010011110100001100111 2#
b100000001 D$
#4353
b101101000001110011001110011 X"
b101101000001110011001110011 2#
b100000010 D$
#4354
b101011001101110101000110111 X"
b101011001101110101000110111 2#
b100000011 D$
#4355
b101100100111110101101111100 X"
b101100100111110101101111100 2#
b100000100 D$
#4356
b101010011001110011111101010 X"
b101010011001110011111101010 2#
b100000101 D$
#4357
b1110111101110100111111101 X"
b1110111101110100111111101 2#
b100000110 D$
#4358
b11111110111010111110101110010101 X"
b11111110111010111110101110010101 2#
b100000111 D$
#4359
b1100011110101100001000 X"
b1100011110101100001000 2#
b100001000 D$
#4360
b10011001110101101101010 X"
b10011001110101101101010 2#
b100001001 D$
#4361
b10011011001110100101111011 X"
b10011011001110100101111011 2#
b100001010 D$
#4362
b1000010111001110101111011010 X"
b1000010111001110101111011010 2#
b100001011 D$
#4363
b100000001111110101010100000 X"
b100000001111110101010100000 2#
b100001100 D$
#4364
b11111110010110001110100101110000 X"
b11111110010110001110100101110000 2#
b100001101 D$
#4365
b11111101101100001110101110100111 X"
b11111101101100001110101110100111 2#
b100001110 D$
#4366
b11111011011100011110110101001100 X"
b11111011011100011110110101001100 2#
b100001111 D$
#4367
b11111001101100011110110011000110 X"
b11111001101100011110110011000110 2#
b100010000 D$
#4368
b11111011111010011110101001010001 X"
b11111011111010011110101001010001 2#
b100010001 D$
#4369
b11111101111010001110100011000111 X"
b11111101111010001110100011000111 2#
b100010010 D$
#4370
b11111011110110011110011110001111 X"
b11111011110110011110011110001111 2#
b100010011 D$
#4371
b11111100110000011110011110110101 X"
b11111100110000011110011110110101 2#
b100010100 D$
#4372
b11111111011110001110011000010010 X"
b11111111011110001110011000010010 2#
b100010101 D$
#4373
b1100000101110011011101110 X"
b1100000101110011011101110 2#
b100010110 D$
#4374
b11110110101110100101110001 X"
b11110110101110100101110001 2#
b100010111 D$
#4375
b11101101011110101101000001 X"
b11101101011110101101000001 2#
b100011000 D$
#4376
b1101000011110101101110111 X"
b1101000011110101101110111 2#
b100011001 D$
#4377
b11111101111111101110110010100111 X"
b11111101111111101110110010100111 2#
b100011010 D$
#4378
b111110111110111010111101 X"
b111110111110111010111101 2#
b100011011 D$
#4379
b111000101110101001111100 X"
b111000101110101001111100 2#
b100011100 D$
#4380
b11111111101100001110011101010101 X"
b11111111101100001110011101010101 2#
b100011101 D$
#4381
b11111101001100111110100101001001 X"
b11111101001100111110100101001001 2#
b100011110 D$
#4382
b11111001000011001110110001111110 X"
b11111001000011001110110001111110 2#
b100011111 D$
#4383
b11110111101101111110110100011000 X"
b11110111101101111110110100011000 2#
b100100000 D$
#4384
b11110101001100011110110001101101 X"
b11110101001100011110110001101101 2#
b100100001 D$
#4385
b11110011001100011110110101110011 X"
b11110011001100011110110101110011 2#
b100100010 D$
#4386
b11110100101000011110110110111110 X"
b11110100101000011110110110111110 2#
b100100011 D$
#4387
b11111001110000001110110000000010 X"
b11111001110000001110110000000010 2#
b100100100 D$
#4388
b11111000001111001110110010001110 X"
b11111000001111001110110010001110 2#
b100100101 D$
#4389
b11110111000100111110100001100011 X"
b11110111000100111110100001100011 2#
b100100110 D$
#4390
b11111011110100101110011011101001 X"
b11111011110100101110011011101001 2#
b100100111 D$
#4391
b11111010010011111110100111001100 X"
b11111010010011111110100111001100 2#
b100101000 D$
#4392
b11111001010000101110100001010110 X"
b11111001010000101110100001010110 2#
b100101001 D$
#4393
b11111010110011001110101101111111 X"
b11111010110011001110101101111111 2#
b100101010 D$
#4394
b11111000110111101110110010100010 X"
b11111000110111101110110010100010 2#
b100101011 D$
#4395
b11110110011001011110110010100011 X"
b11110110011001011110110010100011 2#
b100101100 D$
#4396
b11110011101111001110111111100100 X"
b11110011101111001110111111100100 2#
b100101101 D$
#4397
b11110010001100101110110111111010 X"
b11110010001100101110110111111010 2#
b100101110 D$
#4398
b11110010010110011110101111110101 X"
b11110010010110011110101111110101 2#
b100101111 D$
#4399
b11110000101011111110101111101011 X"
b11110000101011111110101111101011 2#
b100110000 D$
#4400
b11110000000100111110101010010001 X"
b11110000000100111110101010010001 2#
b100110001 D$
#4401
b11110001111101001110101110011011 X"
b11110001111101001110101110011011 2#
b100110010 D$
#4402
b11110011101101111110011110110011 X"
b11110011101101111110011110110011 2#
b100110011 D$
#4403
b11110001111101011110101011001000 X"
b11110001111101011110101011001000 2#
b100110100 D$
#4404
b11110000001111101111000010001111 X"
b11110000001111101111000010001111 2#
b100110101 D$
#4405
b11110011111110001110111100001111 X"
b11110011111110001110111100001111 2#
b100110110 D$
#4406
b11110101000110011111000000001111 X"
b11110101000110011111000000001111 2#
b100110111 D$
