MATLAB/.Xil/Vivado-16972-badger/hw_ila_data_2/zip_work/waveform.vcd
$date
        2022-Feb-12 04:14:19
$end
$version
        Vivado v2019.1 (64-bit)
$end
$timescale
        1ps
$end
$scope module dut $end
$var reg 3 " i_system_wrapper/system_i/acquisition_axis_0_st_fft_curr [2:0] $end
$var reg 1 % i_system_wrapper/system_i/acquisition_axis_0_event_frame_started $end
$var reg 3 & i_system_wrapper/system_i/acquisition_axis_0_st_fft_next [2:0] $end
$var reg 1 ) i_system_wrapper/system_i/acquisition_axis_0_st_xfft_curr $end
$var reg 1 * i_system_wrapper/system_i/acquisition_axis_0_st_xfft_next $end
$var reg 4 + i_system_wrapper/system_i/acquisition_axis_0_st_curr [3:0] $end
$var reg 17 / i_system_wrapper/system_i/acquisition_axis_0_xfft_cntr [16:0] $end
$var reg 1 @ i_system_wrapper/system_i/acquisition_axis_0_config_xfft_valid $end
$var reg 1 A i_system_wrapper/system_i/acquisition_axis_0_switch_position $end
$var reg 16 B i_system_wrapper/system_i/acquisition_axis_0_config_xfft_data [15:0] $end
$var reg 1 R i_system_wrapper/system_i/acquisition_axis_0_xfft_data_out_tvalid $end
$var reg 1 S i_system_wrapper/system_i/acquisition_axis_0_xfft_data_out_tlast $end
$var reg 1 T i_system_wrapper/system_i/acquisition_axis_0_xfft_tvalid1 $end
$var reg 32 U i_system_wrapper/system_i/acquisition_axis_0_second_peak_data [31:0] $end
$var reg 16 u i_system_wrapper/system_i/acquisition_axis_0_max_peak [15:0] $end
$var reg 16 '" i_system_wrapper/system_i/acquisition_axis_0_max_index [15:0] $end
$var reg 32 7" i_system_wrapper/system_i/acquisition_axis_0_second_peak [31:0] $end
$var reg 1 W" i_system_wrapper/system_i/acquisition_axis_0_max_index_done $end
$var reg 1 X" i_system_wrapper/system_i/acquisition_axis_0_second_peak_valid $end
$var reg 1 Y" i_system_wrapper/system_i/acquisition_axis_0_second_peak_last $end
$var reg 16 Z" i_system_wrapper/system_i/acquisition_axis_0_xfft_index [15:0] $end
$var reg 32 j" i_system_wrapper/system_i/acquisition_axis_0_xfft_data_out_tdata [31:0] $end
$var reg 1 ,# _TRIGGER $end
$var reg 1 -# _WINDOW $end
$var reg 1 .# _GAP $end
$upscope $end
$enddefinitions $end
#0
$dumpvars
b1 "
0%
b1 &
0)
0*
b100 +
b0 /
1@
1A
b100001100 B
0R
0S
0T
b10000111000000011111100010 U
b0 u
b0 '"
b0 7"
0W"
0X"
0Y"
b111111110000 Z"
b10000111000000011111100010 j"
0,#
1-#
0.#
$end
#4095
1R
b0 Z"
b11111000110100110000000001111111 j"
#4096
b1 Z"
b11000010111111110010111011 j"
#4097
b10 Z"
b10000001111111111100011100 j"
#4098
b11 Z"
b11111100011101010000010010111000 j"
#4099
b100 Z"
b11110001111001100000001111001010 j"
#4100
b11111000110100110000000001111111 U
b101 Z"
b11100100111001000000001110011101 j"
#4101
b11000010111111110010111011 U
b110 Z"
b11110000000001100000001100001001 j"
#4102
b10000001111111111100011100 U
b111 Z"
b11111011000110000000000100001011 j"
#4103
b11111100011101010000010010111000 U
b1000 Z"
b11110011010111000000011001111101 j"
#4104
b11110001111001100000001111001010 U
b1001 Z"
b11101111001100000000111011100111 j"
#4105
b11100100111001000000001110011101 U
b1010 Z"
b11101101110001010000110101011111 j"
#4106
b11110000000001100000001100001001 U
b1011 Z"
b11101011000101100000011110011100 j"
#4107
b11111011000110000000000100001011 U
b1100 Z"
b11101000010100100000101010101101 j"
#4108
b11110011010111000000011001111101 U
b1101 Z"
b11101100111000000000111111100001 j"
#4109
b11101111001100000000111011100111 U
b1110 Z"
b11101111101101100001000001110110 j"
#4110
b11101101110001010000110101011111 U
b1111 Z"
b11101100000110000001000000011011 j"
#4111
b11101011000101100000011110011100 U
b10000 Z"
b11110101110000100000100000110000 j"
#4112
b11101000010100100000101010101101 U
b10001 Z"
b11111011010011101111111001111000 j"
#4113
b11101100111000000000111111100001 U
b10010 Z"
b11110000101000000000000010010101 j"
#4114
b11101111101101100001000001110110 U
b10011 Z"
b11100101101101100000110000100010 j"
#4115
b11101100000110000001000000011011 U
b10100 Z"
b11100110100011100000111000001101 j"
#4116
b11110101110000100000100000110000 U
b10101 Z"
b11110001100110100000101011010001 j"
#4117
b11111011010011101111111001111000 U
b10110 Z"
b11110110001001110000110111101010 j"
#4118
b11110000101000000000000010010101 U
b10111 Z"
b11110101010010100000110011000001 j"
#4119
b11100101101101100000110000100010 U
b11000 Z"
b11110100101110010000100011001100 j"
#4120
b11100110100011100000111000001101 U
b11001 Z"
b11110010100010010000011011111001 j"
#4121
b11110001100110100000101011010001 U
b11010 Z"
b11110101100110100000001011101000 j"
#4122
b11110110001001110000110111101010 U
b11011 Z"
b11111011000000100000001111101001 j"
#4123
b11110101010010100000110011000001 U
b11100 Z"
b11111000110001010000101101111111 j"
#4124
b11110100101110010000100011001100 U
b11101 Z"
b11110101011011010000110010001111 j"
#4125
b11110010100010010000011011111001 U
b11110 Z"
b11110111000010010000100100010100 j"
#4126
b11110101100110100000001011101000 U
b11111 Z"
b11110111001000000000110101010010 j"
#4127
b11111011000000100000001111101001 U
b100000 Z"
b11111011101100110001001100111101 j"
#4128
b11111000110001010000101101111111 U
b100001 Z"
b10001010000001000010110011 j"
#4129
b11110101011011010000110010001111 U
b100010 Z"
b11110110001001100000011001011010 j"
#4130
b11110111000010010000100100010100 U
b100011 Z"
b11101010101011110000000011111011 j"
#4131
b11110111001000000000110101010010 U
b100100 Z"
b11110100000100100000000101110110 j"
#4132
b11111011101100110001001100111101 U
b100101 Z"
b11110110101110100000011001011001 j"
#4133
b10001010000001000010110011 U
b100110 Z"
b11110000101101000000101111010001 j"
#4134
b11110110001001100000011001011010 U
b100111 Z"
b11110010101100100000110001010101 j"
#4135
b11101010101011110000000011111011 U
b101000 Z"
b11111001100000100000111000101010 j"
#4136
b11110100000100100000000101110110 U
b101001 Z"
b11111101000111110000111010010011 j"
#4137
b11110110101110100000011001011001 U
b101010 Z"
b11110110011011100000110101010110 j"
#4138
b11110000101101000000101111010001 U
b101011 Z"
b11101110110111110000110100010111 j"
#4139
b11110010101100100000110001010101 U
b101100 Z"
b11110100110100000000111000100111 j"
#4140
b11111001100000100000111000101010 U
b101101 Z"
b11111010001000110001011000001011 j"
#4141
b11111101000111110000111010010011 U
b101110 Z"
b11111001111110100001101100111000 j"
#4142
b11110110011011100000110101010110 U
b101111 Z"
b11111001011100000001010110110110 j"
#4143
b11101110110111110000110100010111 U
b110000 Z"
b11110110111111000001000001101001 j"
#4144
b11110100110100000000111000100111 U
b110001 Z"
b11110011011000000000101001100101 j"
#4145
b11111010001000110001011000001011 U
b110010 Z"
b11110001010000000000100001110011 j"
#4146
b11111001111110100001101100111000 U
b110011 Z"
b11110111000010010000111001001111 j"
#4147
b11111001011100000001010110110110 U
b110100 Z"
b11111101100110110001010101110010 j"
#4148
b11110110111111000001000001101001 U
b110101 Z"
b11111011111111110001000101100011 j"
#4149
b11110011011000000000101001100101 U
b110110 Z"
b11111111111010010000011101111110 j"
#4150
b11110001010000000000100001110011 U
b110111 Z"
b1000111110100000101011110100 j"
#4151
b11110111000010010000111001001111 U
b111000 Z"
b11010001000000101010110110 j"
#4152
b11111101100110110001010101110010 U
b111001 Z"
b11110110001000110000101000001110 j"
#4153
b11111011111111110001000101100011 U
b111010 Z"
b11111100101001100000101110111101 j"
#4154
b11111111111010010000011101111110 U
b111011 Z"
b1001001100010000110001000111 j"
#4155
b1000111110100000101011110100 U
b111100 Z"
b11011100001001110101001 j"
#4156
b11010001000000101010110110 U
b111101 Z"
b11110100100011100001011001011011 j"
#4157
b11110110001000110000101000001110 U
b111110 Z"
b11110000110101110001000110001101 j"
#4158
b11111100101001100000101110111101 U
b111111 Z"
b11110101010111110000110001011100 j"
#4159
b1001001100010000110001000111 U
b1000000 Z"
b100001011110000101110101001 j"
#4160
b11011100001001110101001 U
b1000001 Z"
b111101000000000101101011001 j"
#4161
b11110100100011100001011001011011 U
b1000010 Z"
b1010100010000110100100001 j"
#4162
b11110000110101110001000110001101 U
b1000011 Z"
b10110100010001000000011000 j"
#4163
b11110101010111110000110001011100 U
b1000100 Z"
b110010010110000011011000001 j"
#4164
b100001011110000101110101001 U
b1000101 Z"
b11111100111001000000000111111110 j"
#4165
b111101000000000101101011001 U
b1000110 Z"
b11110010110010100000100001010001 j"
#4166
b1010100010000110100100001 U
b1000111 Z"
b11110011110100000000011110000001 j"
#4167
b10110100010001000000011000 U
b1001000 Z"
b11110101100011110000001110101011 j"
#4168
b110010010110000011011000001 U
b1001001 Z"
b11101111000100100000011010111000 j"
#4169
b11111100111001000000000111111110 U
b1001010 Z"
b11110010001101010000101100100100 j"
#4170
b11110010110010100000100001010001 U
b1001011 Z"
b100011011100000101000001011 j"
#4171
b11110011110100000000011110000001 U
b1001100 Z"
b1000000101110000101000101100 j"
#4172
b11110101100011110000001110101011 U
b1001101 Z"
b11100010010001000010000011 j"
#4173
b11101111000100100000011010111000 U
b1001110 Z"
b10111011100000100101100110 j"
#4174
b11110010001101010000101100100100 U
b1001111 Z"
b11010001001111111100000110 j"
#4175
b100011011100000101000001011 U
b1010000 Z"
b10011100000010100111011 j"
#4176
b1000000101110000101000101100 U
b1010001 Z"
b11111011101110000000101011000100 j"
#4177
b11100010010001000010000011 U
b1010010 Z"
b1000110001000100011000 j"
#4178
b10111011100000100101100110 U
b1010011 Z"
b11111100101110110001011110101011 j"
#4179
b11010001001111111100000110 U
b1010100 Z"
b11110110000010010001000010100101 j"
#4180
b10011100000010100111011 U
b1010101 Z"
b11110100111011010000101100001111 j"
#4181
b11111011101110000000101011000100 U
b1010110 Z"
b11110000111110100000111011111100 j"
#4182
b1000110001000100011000 U
b1010111 Z"
b11110010001011010001001011000011 j"
#4183
b11111100101110110001011110101011 U
b1011000 Z"
b11111010101010110000111111010010 j"
#4184
b11110110000010010001000010100101 U
b1011001 Z"
b11011001000000111010010000 j"
#4185
b11110100111011010000101100001111 U
b1011010 Z"
b11111100110000100001000101110110 j"
#4186
b11110000111110100000111011111100 U
b1011011 Z"
b11110010101111100001001101110110 j"
#4187
b11110010001011010001001011000011 U
b1011100 Z"
b11111010101110000000111001111101 j"
#4188
b11111010101010110000111111010010 U
b1011101 Z"
b101101011000000101010110000 j"
#4189
b11011001000000111010010000 U
b1011110 Z"
b100011000010001001111011000 j"
#4190
b11111100110000100001000101110110 U
b1011111 Z"
b11011110000001011111110010 j"
#4191
b11110010101111100001001101110110 U
b1100000 Z"
b1100001000000001001111111100 j"
#4192
b11111010101110000000111001111101 U
b1100001 Z"
b10011100000010001001001101001 j"
#4193
b101101011000000101010110000 U
b1100010 Z"
b10001000010010000011000001111 j"
#4194
b100011000010001001111011000 U
b1100011 Z"
b111110111110000000000010001 j"
#4195
b11011110000001011111110010 U
b1100100 Z"
b111000110100000011110100100 j"
#4196
b1100001000000001001111111100 U
b1100101 Z"
b1011000111110000111001111000 j"
#4197
b10011100000010001001001101001 U
b1100110 Z"
b110111111010001000111000101 j"
#4198
b10001000010010000011000001111 U
b1100111 Z"
b11111010101001010000111001010001 j"
#4199
b111110111110000000000010001 U
b1101000 Z"
b11110110010001110000111110100110 j"
#4200
b111000110100000011110100100 U
b1101001 Z"
b101000000010001001010100000 j"
#4201
b1011000111110000111001111000 U
b1101010 Z"
b101010010010000110111100110 j"
#4202
b110111111010001000111000101 U
b1101011 Z"
b11111100000010100000011101101111 j"
#4203
b11111010101001010000111001010001 U
b1101100 Z"
b1011000111010000011100011011 j"
#4204
b11110110010001110000111110100110 U
b1101101 Z"
b10011001011100000100000001010 j"
#4205
b101000000010001001010100000 U
b1101110 Z"
b1110100100100000110001101111 j"
#4206
b101010010010000110111100110 U
b1101111 Z"
b110111111010000110101001111 j"
#4207
b11111100000010100000011101101111 U
b1110000 Z"
b100010100000011010101010 j"
#4208
b1011000111010000011100011011 U
b1110001 Z"
b110011101000001000000110100 j"
#4209
b10011001011100000100000001010 U
b1110010 Z"
b111010001010001100010110110 j"
#4210
b1110100100100000110001101111 U
b1110011 Z"
b11111101111000100001001001100001 j"
#4211
b110111111010000110101001111 U
b1110100 Z"
b11111000010011100000101101101100 j"
#4212
b100010100000011010101010 U
b1110101 Z"
b11110110010101110000110000001001 j"
#4213
b110011101000001000000110100 U
b1110110 Z"
b11111111011111100000111110101010 j"
#4214
b111010001010001100010110110 U
b1110111 Z"
b10001100110110000101011101110 j"
#4215
b11111101111000100001001001100001 U
b1111000 Z"
b1011100001110000010010110001 j"
#4216
b11111000010011100000101101101100 U
b1111001 Z"
b11111011011011010000001011100011 j"
#4217
b11110110010101110000110000001001 U
b1111010 Z"
b11111110111001000000000000011001 j"
#4218
b11111111011111100000111110101010 U
b1111011 Z"
b1000101011010000010011110001 j"
#4219
b10001100110110000101011101110 U
b1111100 Z"
b1010000110100000011110000001 j"
#4220
b1011100001110000010010110001 U
b1111101 Z"
b110000011100000011110001010 j"
#4221
b11111011011011010000001011100011 U
b1111110 Z"
b111110111000000100101011010 j"
#4222
b11111110111001000000000000011001 U
b1111111 Z"
b1110011001010000010100111011 j"
#4223
b1000101011010000010011110001 U
b10000000 Z"
b1111001000000000011110001111 j"
#4224
b1010000110100000011110000001 U
b10000001 Z"
b111111100100000111010101110 j"
#4225
b110000011100000011110001010 U
b10000010 Z"
b100000010100000011101110101 j"
#4226
b111110111000000100101011010 U
b10000011 Z"
b1110100001110000001111110010 j"
#4227
b1110011001010000010100111011 U
b10000100 Z"
b10101111001100000101000111111 j"
#4228
b1111001000000000011110001111 U
b10000101 Z"
b1011001100000000111010001110 j"
#4229
b111111100100000111010101110 U
b10000110 Z"
b11111110111010110000100011000101 j"
#4230
b100000010100000011101110101 U
b10000111 Z"
b11111111100000000000000110100110 j"
#4231
b1110100001110000001111110010 U
b10001000 Z"
b110101000110000001110110011 j"
#4232
b10101111001100000101000111111 U
b10001001 Z"
b1011011001000000100111001011 j"
#4233
b1011001100000000111010001110 U
b10001010 Z"
b10000111100000001000111000100 j"
#4234
b11111110111010110000100011000101 U
b10001011 Z"
b10011111000000001011010110100 j"
#4235
b11111111100000000000000110100110 U
b10001100 Z"
b1010010101010000100101010000 j"
#4236
b110101000110000001110110011 U
b10001101 Z"
b11111111001010111111111000100101 j"
#4237
b1011011001000000100111001011 U
b10001110 Z"
b101011011111110111101101 j"
#4238
b10000111100000001000111000100 U
b10001111 Z"
b1010111101011111111101110001 j"
#4239
b10011111000000001011010110100 U
b10010000 Z"
b1101100001000000110011111110 j"
#4240
b1010010101010000100101010000 U
b10010001 Z"
b1100100000000001100010101100 j"
#4241
b11111111001010111111111000100101 U
b10010010 Z"
b1100101001100001000110010010 j"
#4242
b101011011111110111101101 U
b10010011 Z"
b1010010000000000011101010111 j"
#4243
b1010111101011111111101110001 U
b10010100 Z"
b10000001011001111111100000111 j"
#4244
b1101100001000000110011111110 U
b10010101 Z"
b10001110100101111111101100010 j"
#4245
b1100100000000001100010101100 U
b10010110 Z"
b1100011100110000010010011001 j"
#4246
b1100101001100001000110010010 U
b10010111 Z"
b1000101010100000000100110100 j"
#4247
b1010010000000000011101010111 U
b10011000 Z"
b1000011000110000001011110000 j"
#4248
b10000001011001111111100000111 U
b10011001 Z"
b1101100100000000011001101101 j"
#4249
b10001110100101111111101100010 U
b10011010 Z"
b1111101001010000011100111011 j"
#4250
b1100011100110000010010011001 U
b10011011 Z"
b10000000101010000101110111111 j"
#4251
b1000101010100000000100110100 U
b10011100 Z"
b1100000111000000101011010010 j"
#4252
b1000011000110000001011110000 U
b10011101 Z"
b1010110100000000111001011101 j"
#4253
b1101100100000000011001101101 U
b10011110 Z"
b1111110010110001000100000111 j"
#4254
b1111101001010000011100111011 U
b10011111 Z"
b10001011011000000110110010100 j"
#4255
b10000000101010000101110111111 U
b10100000 Z"
b1110011011000000011000010011 j"
#4256
b1100000111000000101011010010 U
b10100001 Z"
b1010001111101111101101100111 j"
#4257
b1010110100000000111001011101 U
b10100010 Z"
b1101100000001111011001001000 j"
#4258
b1111110010110001000100000111 U
b10100011 Z"
b1110100110101111100110101101 j"
#4259
b10001011011000000110110010100 U
b10100100 Z"
b1110001010001111111101101101 j"
#4260
b1110011011000000011000010011 U
b10100101 Z"
b1110101110100000010100011100 j"
#4261
b1010001111101111101101100111 U
b10100110 Z"
b10000101011100000010111010010 j"
#4262
b1101100000001111011001001000 U
b10100111 Z"
b10000111010000000010111010010 j"
#4263
b1110100110101111100110101101 U
b10101000 Z"
b1110101111010000011110111101 j"
#4264
b1110001010001111111101101101 U
b10101001 Z"
b10010101101010000001111100111 j"
#4265
b1110101110100000010100011100 U
b10101010 Z"
b1100010000000000001010110001 j"
#4266
b10000101011100000010111010010 U
b10101011 Z"
b100011001110000010011101111 j"
#4267
b10000111010000000010111010010 U
b10101100 Z"
b1101001010001111110001011010 j"
#4268
b1110101111010000011110111101 U
b10101101 Z"
b10111100001011111100100111100 j"
#4269
b10010101101010000001111100111 U
b10101110 Z"
b1111011110110000000111101110 j"
#4270
b1100010000000000001010110001 U
b10101111 Z"
b1010001111110000010100111001 j"
#4271
b100011001110000010011101111 U
b10110000 Z"
b10110100101000000010001001010 j"
#4272
b1101001010001111110001011010 U
b10110001 Z"
b11001100101100000010111101111 j"
#4273
b10111100001011111100100111100 U
b10110010 Z"
b1111111011100000001000101101 j"
#4274
b1111011110110000000111101110 U
b10110011 Z"
b1011101101111111111000110010 j"
#4275
b1010001111110000010100111001 U
b10110100 Z"
b1010110111011111101011101101 j"
#4276
b10110100101000000010001001010 U
b10110101 Z"
b1001111001111111011110100111 j"
#4277
b11001100101100000010111101111 U
b10110110 Z"
b1110000101001111101011101010 j"
#4278
b1111111011100000001000101101 U
b10110111 Z"
b10010011101010000000101101001 j"
#4279
b1011101101111111111000110010 U
b10111000 Z"
b11010101000010000001110010010 j"
#4280
b1010110111011111101011101101 U
b10111001 Z"
b100001110101110000010110111011 j"
#4281
b1001111001111111011110100111 U
b10111010 Z"
b10110011011000000010000011100 j"
#4282
b1110000101001111101011101010 U
b10111011 Z"
b1011100010110000001010111010 j"
#4283
b10010011101010000000101101001 U
b10111100 Z"
b1011110100010000001000110101 j"
#4284
b11010101000010000001110010010 U
b10111101 Z"
b110111000010000001010010011 j"
#4285
b100001110101110000010110111011 U
b10111110 Z"
b11111111011100101111111010011011 j"
#4286
b10110011011000000010000011100 U
b10111111 Z"
b1100110101111011001110111 j"
#4287
b1011100010110000001010111010 U
b11000000 Z"
b1000001110101111011101111001 j"
#4288
b1011110100010000001000110101 U
b11000001 Z"
b1010101010111111100010001010 j"
#4289
b110111000010000001010010011 U
b11000010 Z"
b1101000000101111110010111011 j"
#4290
b11111111011100101111111010011011 U
b11000011 Z"
b10010111000011111111101011011 j"
#4291
b1100110101111011001110111 U
b11000100 Z"
b1011000001001111100100110101 j"
#4292
b1000001110101111011101111001 U
b11000101 Z"
b101011010001111010010101111 j"
#4293
b1010101010111111100010001010 U
b11000110 Z"
b1011110101011111101000000000 j"
#4294
b1101000000101111110010111011 U
b11000111 Z"
b1111001111100000000111100100 j"
#4295
b10010111000011111111101011011 U
b11001000 Z"
b10001010111011111101110110011 j"
#4296
b1011000001001111100100110101 U
b11001001 Z"
b10000011111101111001100110110 j"
#4297
b101011010001111010010101111 U
b11001010 Z"
b111011111111111000010000101 j"
#4298
b1011110101011111101000000000 U
b11001011 Z"
b1001011111101111010100001100 j"
#4299
b1111001111100000000111100100 U
b11001100 Z"
b1110110011001111110100000111 j"
#4300
b10001010111011111101110110011 U
b11001101 Z"
b10111001111010000000001010111 j"
#4301
b10000011111101111001100110110 U
b11001110 Z"
b100000000110001111100000101000 j"
#4302
b111011111111111000010000101 U
b11001111 Z"
b11101011101111110111101010111 j"
#4303
b1001011111101111010100001100 U
b11010000 Z"
b11000000110001111001011111011 j"
#4304
b1110110011001111110100000111 U
b11010001 Z"
b10001101100101111100110111111 j"
#4305
b10111001111010000000001010111 U
b11010010 Z"
b10010111111011111110000010100 j"
#4306
b100000000110001111100000101000 U
b11010011 Z"
b11001010101000000000110111000 j"
#4307
b11101011101111110111101010111 U
b11010100 Z"
b10101011000100000000111011011 j"
#4308
b11000000110001111001011111011 U
b11010101 Z"
b1101010010011111101101110010 j"
#4309
b10001101100101111100110111111 U
b11010110 Z"
b1101101110001111010110100011 j"
#4310
b10010111111011111110000010100 U
b11010111 Z"
b10010001101011111000011001011 j"
#4311
b11001010101000000000110111000 U
b11011000 Z"
b10011011000011111001010100111 j"
#4312
b10101011000100000000111011011 U
b11011001 Z"
b1110000111111111110000101101 j"
#4313
b1101010010011111101101110010 U
b11011010 Z"
b100110110100000000000111010 j"
#4314
b1101101110001111010110100011 U
b11011011 Z"
b10110100111111110001000111 j"
#4315
b10010001101011111000011001011 U
b11011100 Z"
b101001011001111010100000110 j"
#4316
b10011011000011111001010100111 U
b11011101 Z"
b10000111010001111001010111010 j"
#4317
b1110000111111111110000101101 U
b11011110 Z"
b10101100001101111011111011011 j"
#4318
b100110110100000000000111010 U
b11011111 Z"
b10001011111011111110111101000 j"
#4319
b10110100111111110001000111 U
b11100000 Z"
b10000010111001111111011100101 j"
#4320
b101001011001111010100000110 U
b11100001 Z"
b1011010101111111011010111010 j"
#4321
b10000111010001111001010111010 U
b11100010 Z"
b1110010011111001110010111 j"
#4322
b10101100001101111011111011011 U
b11100011 Z"
b11111110100100001111011000110001 j"
#4323
b10001011111011111110111101000 U
b11100100 Z"
b1001001110011111001011000011 j"
#4324
b10000010111001111111011100101 U
b11100101 Z"
b10101010111001110111011011011 j"
#4325
b1011010101111111011010111010 U
b11100110 Z"
b10010010101111111000101011011 j"
#4326
b1110010011111001110010111 U
b11100111 Z"
b110011000111110111000110101 j"
#4327
b11111110100100001111011000110001 U
b11101000 Z"
b11000010011110011010001000 j"
#4328
b1001001110011111001011000011 U
b11101001 Z"
b111000001111110101001111101 j"
#4329
b10101010111001110111011011011 U
b11101010 Z"
b1001101001111110111000010011 j"
#4330
b10010010101111111000101011011 U
b11101011 Z"
b1000001110101110101111111010 j"
#4331
b110011000111110111000110101 U
b11101100 Z"
b110011101111110111100111100 j"
#4332
b11000010011110011010001000 U
b11101101 Z"
b1110001110011111011100011110 j"
#4333
b111000001111110101001111101 U
b11101110 Z"
b10011000100101111011011001011 j"
#4334
b1001101001111110111000010011 U
b11101111 Z"
b10100100011011111000011101101 j"
#4335
b1000001110101110101111111010 U
b11110000 Z"
b10000000001101110110001110111 j"
#4336
b110011101111110111100111100 U
b11110001 Z"
b111010110101110101000101001 j"
#4337
b1110001110011111011100011110 U
b11110010 Z"
b10010100111110111010011111 j"
#4338
b10011000100101111011011001011 U
b11110011 Z"
b10100000101110110011111010 j"
#4339
b10100100011011111000011101101 U
b11110100 Z"
b111100001011110001101010001 j"
#4340
b10000000001101110110001110111 U
b11110101 Z"
b1111100000111110000010010101 j"
#4341
b111010110101110101000101001 U
b11110110 Z"
b10001001110001110101001101001 j"
#4342
b10010100111110111010011111 U
b11110111 Z"
b1011011100001111010001001010 j"
#4343
b10100000101110110011111010 U
b11111000 Z"
b111111001001111010110001000 j"
#4344
b111100001011110001101010001 U
b11111001 Z"
b100101000111111110010001101 j"
#4345
b1111100000111110000010010101 U
b11111010 Z"
b111000001111110010000001 j"
#4346
b10001001110001110101001101001 U
b11111011 Z"
b100011000101111100100000000 j"
#4347
b1011011100001111010001001010 U
b11111100 Z"
b110000001111100011110100 j"
#4348
b111111001001111010110001000 U
b11111101 Z"
b11111001001101101110011111110000 j"
#4349
b100101000111111110010001101 U
b11111110 Z"
b11111111011001011110000011100001 j"
#4350
b111000001111110010000001 U
b11111111 Z"
b1000010011101110010101101110 j"
#4351
b100011000101111100100000000 U
b100000000 Z"
b111101000001110110100010101 j"
#4352
b110000001111100011110100 U
b100000001 Z"
b101100000011111011110000100 j"
#4353
b11111001001101101110011111110000 U
b100000010 Z"
b1011001111111001110001001 j"
#4354
b11111111011001011110000011100001 U
b100000011 Z"
b11111111011000111110100001001001 j"
#4355
b1000010011101110010101101110 U
b100000100 Z"
b111011100101110011101010101 j"
#4356
b111101000001110110100010101 U
b100000101 Z"
b1011111011011111010010111111 j"
#4357
b101100000011111011110000100 U
b100000110 Z"
b111101010001111100101011001 j"
#4358
b1011001111111001110001001 U
b100000111 Z"
b1101101101101111010010000000 j"
#4359
b11111111011000111110100001001001 U
b100001000 Z"
b1101011010101110110001000101 j"
#4360
b111011100101110011101010101 U
b100001001 Z"
b1001110001011110011101100000 j"
#4361
b1011111011011111010010111111 U
b100001010 Z"
b1011111010101110111001101100 j"
#4362
b111101010001111100101011001 U
b100001011 Z"
b1110000101111111010011010001 j"
#4363
b1101101101101111010010000000 U
b100001100 Z"
b1101111100101111100000011111 j"
#4364
b1101011010101110110001000101 U
b100001101 Z"
b1001111010011111100000001111 j"
#4365
b1001110001011110011101100000 U
b100001110 Z"
b110001010111111001111111011 j"
#4366
b1011111010101110111001101100 U
b100001111 Z"
b100011010111110111111111011 j"
#4367
b1110000101111111010011010001 U
b100010000 Z"
b1100101111111000110010000 j"
#4368
b1101111100101111100000011111 U
b100010001 Z"
b11011101111110110001000111 j"
#4369
b1001111010011111100000001111 U
b100010010 Z"
b111111000001110011010110011 j"
#4370
b110001010111111001111111011 U
b100010011 Z"
b101001101101110111010001100 j"
#4371
b100011010111110111111111011 U
b100010100 Z"
b10110010101111010000010001 j"
#4372
b1100101111111000110010000 U
b100010101 Z"
b11100011101110111101000000 j"
#4373
b11011101111110110001000111 U
b100010110 Z"
b11001101111110111101100010 j"
#4374
b111111000001110011010110011 U
b100010111 Z"
b111101000111111100010000100 j"
#4375
b101001101101110111010001100 U
b100011000 Z"
b1010110101111111100110011110 j"
#4376
b10110010101111010000010001 U
b100011001 Z"
b11011000101111100000101010 j"
#4377
b11100011101110111101000000 U
b100011010 Z"
b11111100111111101111010101000101 j"
#4378
b11001101111110111101100010 U
b100011011 Z"
b11111100100101001110111111000010 j"
#4379
b111101000111111100010000100 U
b100011100 Z"
b11111011000001111110111010011100 j"
#4380
b1010110101111111100110011110 U
b100011101 Z"
b11111111110100111110110010101100 j"
#4381
b11011000101111100000101010 U
b100011110 Z"
b101101111111111000010000011 j"
#4382
b11111100111111101111010101000101 U
b100011111 Z"
b11011000111111011100110010 j"
#4383
b11111100100101001110111111000010 U
b100100000 Z"
b11111100111000011111001000001010 j"
#4384
b11111011000001111110111010011100 U
b100100001 Z"
b11111011101011001111000001110110 j"
#4385
b11111111110100111110110010101100 U
b100100010 Z"
b11111011101110111111100011011100 j"
#4386
b101101111111111000010000011 U
b100100011 Z"
b11111100000110001111101001100010 j"
#4387
b11011000111111011100110010 U
b100100100 Z"
b11111101000010011111010101111001 j"
#4388
b11111100111000011111001000001010 U
b100100101 Z"
b11111100001110101110111101010001 j"
#4389
b11111011101011001111000001110110 U
b100100110 Z"
b110100011110101000010000 j"
#4390
b11111011101110111111100011011100 U
b100100111 Z"
b1100001100001110101111000100 j"
#4391
b11111100000110001111101001100010 U
b100101000 Z"
b111110000011110111000111111 j"
#4392
b11111101000010011111010101111001 U
b100101001 Z"
b11110101001111111110101010100001 j"
#4393
b11111100001110101110111101010001 U
b100101010 Z"
b11110111000101011110111011011011 j"
#4394
b110100011110101000010000 U
b100101011 Z"
b11101111111111001111110111 j"
#4395
b1100001100001110101111000100 U
b100101100 Z"
b1111011101111000011011100 j"
#4396
b111110000011110111000111111 U
b100101101 Z"
b11111010010001111111001100000111 j"
#4397
b11110101001111111110101010100001 U
b100101110 Z"
b11111111001001011111101010010101 j"
#4398
b11110111000101011110111011011011 U
b100101111 Z"
b100010000101111101000101000 j"
#4399
b11101111111111001111110111 U
b100110000 Z"
b111100111111001001100110 j"
#4400
b1111011101111000011011100 U
b100110001 Z"
b11111100111010111111000000001110 j"
#4401
b11111010010001111111001100000111 U
b100110010 Z"
b11111001011000001110110110100100 j"
#4402
b11111111001001011111101010010101 U
b100110011 Z"
b11110111100011111110101011101111 j"
#4403
b100010000101111101000101000 U
b100110100 Z"
b11110100010011001111001000101111 j"
#4404
b111100111111001001100110 U
b100110101 Z"
b11110111001101001111011011100110 j"
#4405
b11111100111010111111000000001110 U
b100110110 Z"
b11111011110111101110111011000000 j"
#4406
b11111001011000001110110110100100 U
b100110111 Z"
b11111000010010111110110010100010 j"
#4407
b11110111100011111110101011101111 U
b100111000 Z"
b11110010001111101111001111111111 j"
#4408
b11110100010011001111001000101111 U
b100111001 Z"
b11110011001100011111001111111001 j"
#4409
b11110111001101001111011011100110 U
b100111010 Z"
b11110110110010101111001010000000 j"
#4410
b11111011110111101110111011000000 U
b100111011 Z"
b11111001110101011111101111000100 j"
#4411
b11111000010010111110110010100010 U
b100111100 Z"
b11111000000011001111110000011101 j"
#4412
b11110010001111101111001111111111 U
b100111101 Z"
b11111011100011111110110011011110 j"
#4413
b11110011001100011111001111111001 U
b100111110 Z"
b11111100000100011110101000110100 j"
#4414
b11110110110010101111001010000000 U
b100111111 Z"
b11110010010000001111010000011100 j"
#4415
b11111001110101011111101111000100 U
b101000000 Z"
b11110010010000111111011101011110 j"
#4416
b11111000000011001111110000011101 U
b101000001 Z"
b11111100011011111111100101001001 j"
#4417
b11111011100011111110110011011110 U
b101000010 Z"
b11111010001100101111101111011010 j"
#4418
b11111100000100011110101000110100 U
b101000011 Z"
b11110100011101111111100100001001 j"
#4419
b11110010010000001111010000011100 U
b101000100 Z"
b11110101001101111111000101010010 j"
#4420
b11110010010000111111011101011110 U
b101000101 Z"
b11110000100100111110111100111111 j"
#4421
b11111100011011111111100101001001 U
b101000110 Z"
b11101101010100001111001100001101 j"
#4422
b11111010001100101111101111011010 U
b101000111 Z"
b11101011010110001111000110111001 j"
